RV32IMC/RV32IMC.sim/sim_1/behav/xsim/fetch.vcd
$date
   Wed Jan 24 00:22:21 2024
$end
$version
  2018.2
$end
$timescale
  1ps
$end
$scope module top_tb $end
$var reg 1 ! clk $end
$var reg 1 " we $end
$var reg 1 # reset $end
$var reg 32 $ data_in [31:0] $end
$var wire 32 % d1 [31:0] $end
$var wire 32 & d2 [31:0] $end
$var wire 15 ' data_out [14:0] $end
$scope module RV32I_i $end
$var wire 1 ( clk $end
$var wire 1 ) we $end
$var wire 1 * reset $end
$var wire 32 + data_in [31:0] $end
$var wire 32 , data_out [31:0] $end
$var wire 32 - OUT_T [31:0] $end
$var wire 32 . addr [31:0] $end
$var wire 32 / offset_adder [31:0] $end
$var wire 32 0 b [31:0] $end
$var wire 32 1 I [31:0] $end
$var wire 32 2 S [31:0] $end
$var wire 32 3 SB [31:0] $end
$var wire 32 4 UJ [31:0] $end
$var wire 32 5 U [31:0] $end
$var wire 32 6 op1 [31:0] $end
$var wire 32 7 op2 [31:0] $end
$var wire 32 8 reg_1 [31:0] $end
$var wire 32 9 reg_2 [31:0] $end
$var wire 32 : im [31:0] $end
$var wire 32 ; ALU_OUTPUT [31:0] $end
$var wire 32 < write_adder [31:0] $end
$var wire 32 = write_ba [31:0] $end
$var wire 32 > rite_ba [31:0] $end
$var wire 32 ? rb1 [31:0] $end
$var wire 9 @ c [8:0] $end
$var wire 5 A r1 [4:0] $end
$var wire 5 B r2 [4:0] $end
$var wire 5 C rf [4:0] $end
$var reg 5 D re [4:0] $end
$var reg 32 E wb [31:0] $end
$var reg 32 F address_q [31:0] $end
$var wire 1 G branch_p $end
$var reg 3 H fun_3 [2:0] $end
$var reg 32 I ac [31:0] $end
$var reg 32 J addr1 [31:0] $end
$var reg 2 K opa [1:0] $end
$var reg 2 L next_pc [1:0] $end
$var reg 2 M imm_sel [1:0] $end
$var reg 1 N reg_write $end
$var reg 1 O mem_to_reg $end
$var reg 1 P mem_write $end
$var reg 1 Q branch1 $end
$var reg 1 R opb $end
$var reg 1 S j $end
$var reg 4 T alu_op [3:0] $end
$var wire 32 U zero [31:0] $end
$scope module instruction_mem $end
$var wire 1 ( clk $end
$var wire 1 ) we $end
$var wire 32 + din [31:0] $end
$var wire 12 V addre [11:0] $end
$var reg 32 W dout [31:0] $end
$var parameter 32 X address [31:0] $end
$var parameter 32 Y size [31:0] $end
$upscope $end
$scope module control $end
$var wire 32 0 opcode [31:0] $end
$var reg 9 Z dec [8:0] $end
$var reg 7 [ c [6:0] $end
$var reg 25 \ b [31:7] $end
$upscope $end
$scope module unit $end
$var wire 9 @ dec [8:0] $end
$var wire 32 0 in [31:0] $end
$var reg 15 ] un [14:0] $end
$var reg 3 ^ fun_3 [2:0] $end
$var reg 1 _ fun_7 $end
$var reg 4 ` a [3:0] $end
$var reg 4 a c [3:0] $end
$var reg 3 b b [2:0] $end
$var reg 3 c d [2:0] $end
$upscope $end
$scope module ALU $end
$var wire 4 d op [3:0] $end
$var wire 32 8 op1 [31:0] $end
$var wire 32 9 op2 [31:0] $end
$var reg 32 e res [31:0] $end
$upscope $end
$scope module branch $end
$var wire 32 8 op1 [31:0] $end
$var wire 32 9 op2 [31:0] $end
$var wire 1 f en $end
$var reg 1 g re $end
$var wire 1 h fu_3 $end
$upscope $end
$scope module data_mem $end
$var wire 1 ( clk $end
$var wire 1 i str $end
$var wire 1 j ld $end
$var wire 32 ; addr [31:0] $end
$var wire 32 7 d [31:0] $end
$var reg 32 k resu [31:0] $end
$var reg 12 l ad1 [11:0] $end
$upscope $end
$scope module reg_file $end
$var wire 1 ( clk $end
$var wire 1 * reset $end
$var wire 5 A rs1 [4:0] $end
$var wire 5 B rs2 [4:0] $end
$var wire 5 C rd [4:0] $end
$var wire 32 m inp [31:0] $end
$var wire 32 6 ou1 [31:0] $end
$var wire 32 7 ou2 [31:0] $end
$var integer 32 n i $end
$upscope $end
$scope module immediate $end
$var wire 32 0 instruction [31:0] $end
$var wire 32 o pc [31:0] $end
$var reg 32 p S [31:0] $end
$var reg 32 q SB [31:0] $end
$var reg 32 r UJ [31:0] $end
$var reg 32 s U [31:0] $end
$var reg 32 t I [31:0] $end
$var reg 12 u II [11:0] $end
$var reg 12 v SS [11:0] $end
$var reg 12 w az [11:0] $end
$var reg 21 x ay [20:0] $end
$var reg 32 y ax [31:0] $end
$var reg 32 z sb1 [31:0] $end
$var reg 32 { k [31:0] $end
$upscope $end
$upscope $end
$upscope $end
$enddefinitions $end
#0
$dumpvars
1!
1"
x#
bx $
bz %
bz &
bx '
1(
1)
x*
bx +
bzxxxxxxxxxxxxxxx ,
bx -
b0 .
b0 /
bx 0
bx 1
bx 2
bx 3
bx 4
bx 5
bx 6
bx 7
bx 8
bx 9
bx :
bx ;
bx <
bx =
bx >
bz ?
bx @
bx A
bx B
bx C
bx D
bx E
bx F
xG
bx H
bx I
b0 J
bx K
b0 L
bx M
xN
xO
xP
xQ
xR
xS
bx T
b0 U
bx V
bx W
b1100 X
b100000 Y
bx Z
bx [
bx \
bx ]
bx ^
x_
bx `
bx a
bx b
bx c
bx d
bx e
xf
xg
xh
xi
xj
bx k
bx l
bx m
bx n
bx o
bx p
bx q
bx r
bx s
bx t
bx u
bx v
bx w
bx x
bx y
bx z
bx {
$end
#5000
0!
0#
0(
0*
#10000
1!
0"
b100000100000010 '
1(
0)
bz100000100000010 ,
b0x00000000xx0 -
b100 .
b100 /
b1000000000000110010011 0
b10 1
b11 2
b100000000010 3
b10 4
b1000000000000000000000 5
b0 6
bx 7
b0 8
b10 9
b10 :
b10 ;
b10 =
b10 >
b10000000 @
b0 A
b10 B
b11 C
b11 D
b10 E
b0 F
b0 H
b0 K
b0 L
b10 M
1N
0O
0P
0Q
1R
0S
b0 T
b0 V
b1000000000000110010011 W
b10000000 Z
b10011 [
b100000100000010 ]
b0 ^
0_
b0 `
b100 a
b0 b
b100 c
b0 d
b10 e
0f
0h
0i
0j
b10 m
b0 o
b11 p
b100000000010 q
b10 r
b1000000000000000000000 s
b10 t
b10 u
b11 v
b100000000010 w
b10 x
b1000000000 y
b100000000010 z
b10 {
#15000
0!
0(
#20000
1!
1(
b1000 -
b1000 .
b1000 /
b100000000001000010011 0
b1 1
b100 2
b1000 3
b100000000100 4
b100000000000000000000 5
b0 6
bx 7
b0 8
b1 9
b1 :
b1 ;
b1 =
b1 >
b1 B
b100 C
b100 D
b1 E
b100 F
b0 H
b0 K
b0 L
b10 M
b0 T
b1 V
b100000000001000010011 W
b10011 [
b0 ^
b1 e
b1 m
b100 o
b100 p
b1000 q
b100000000100 r
b100000000000000000000 s
b1 t
b1 u
b100 v
b100 w
b100000000000 x
b100000000 y
b100 z
b100000000000 {
#25000
0!
0(
#30000
1!
1(
b0x00000001100 -
b1100 .
b1100 /
b101000000000001010010011 0
b1010 1
b101 2
b100000001100 3
b10010 4
b101000000000000000000000 5
b0 6
bx 7
b0 8
b1010 9
b1010 :
b1010 ;
b1010 =
b1010 >
b1010 B
b101 C
b101 D
b1010 E
b1000 F
b0 H
b0 K
b0 L
b10 M
b0 T
b10 V
b101000000000001010010011 W
b10011 [
b0 ^
b1010 e
b1010 m
b1000 o
b101 p
b100000001100 q
b10010 r
b101000000000000000000000 s
b1010 t
b1010 u
b101 v
b100000000100 w
b1010 x
b101000000000 y
b100000000100 z
b1010 {
#35000
0!
0(
#40000
1!
1(
b10000 -
b10000 .
b10000 /
b100100000001000010011 0
b1 1
b100 2
b10000 3
b100000100000001100 4
b100100000000000000000 5
b1 6
bx 7
b1 8
b1 9
b1 :
b10 ;
b10 =
b10 >
b100 A
b1 B
b100 C
b100 D
b10 E
b1100 F
b0 H
b0 K
b0 L
b10 M
b0 T
b11 V
b100100000001000010011 W
b10011 [
b0 ^
b10 e
b10 m
b1100 o
b100 p
b10000 q
b100000100000001100 r
b100100000000000000000 s
b1 t
b1 u
b100 v
b100 w
b100000100000000000 x
b100100000 y
b100 z
b100000100000000000 {
#45000
0!
0(
#50000
1!
1(
b0x00000010xx0 -
b10100 .
b10100 /
b1000011000000110010011 0
b10 1
b11 2
b100000010010 3
b11000000000010010 4
b1000011000000000000000 5
b10 6
bx 7
b10 8
b10 9
b10 :
b100 ;
b100 =
b100 >
b11 A
b10 B
b11 C
b11 D
b100 E
b10000 F
b0 H
b0 K
b0 L
b10 M
b0 T
b100 V
b1000011000000110010011 W
b10011 [
b0 ^
b100 e
b100 m
b10000 o
b11 p
b100000010010 q
b11000000000010010 r
b1000011000000000000000 s
b10 t
b10 u
b11 v
b100000000010 w
b11000000000000010 x
b1000011000 y
b100000000010 z
b11000000000000010 {
#55000
0!
0(
#60000
1!
b100010000000 '
1(
bz000100010000000 ,
b11000 -
b11000 .
b11000 /
b10100100000010001100011 0
b101 1
b1000 2
b11100 3
b100000100000011000 4
b10100100000000000000000 5
b10 6
b1010 7
b10 8
b1010 9
b0 :
b1100 ;
b1100 =
b1100 >
b10000 @
b100 A
b101 B
b1000 C
b1000 D
b1100 E
b10100 F
0G
b0 H
b0 K
b10 L
b0 M
0N
1Q
0R
b0 T
b101 V
b10100100000010001100011 W
b10000 Z
b1100011 [
b100010000000 ]
b0 ^
b0 `
b0 a
b100 b
b0 c
b1100 e
1f
0g
b1100 m
b10100 o
b1000 p
b11100 q
b100000100000011000 r
b10100100000000000000000 s
b101 t
b101 u
b1000 v
b1000 w
b100000100000000100 x
b10100100000 y
b1000 z
b100000100000000100 {
#65000
0!
0(
#70000
1!
b100000001111100 '
1(
bz100000001111100 ,
b0xxxxxxx11x00 -
b1000000000000000001100 .
b11100 /
b11111111010111111111000011101111 0
b11111111111111111111111111110101 1
b11111111111111111111111111100001 2
b111111111000 3
b1000000000000000001100 4
b11111111010111111111000000000000 5
bx 6
bx 7
bx 8
bx 9
b0 :
bx ;
bx =
bx >
b1000 @
b11111 A
b10101 B
b1 C
b1 D
b11100 E
b11000 F
xG
b111 H
b0 K
b1 L
b0 M
1N
0Q
1S
b1111 T
b110 V
b11111111010111111111000011101111 W
b1000 Z
b1101111 [
b100000001111100 ]
b111 ^
1_
b1000 `
b10 b
b0 c
b1111 d
bx e
0f
xg
1h
b11100 m
b11000 o
b11111111111111111111111111100001 p
b111111111000 q
b1000000000000000001100 r
b11111111010111111111000000000000 s
b11111111111111111111111111110101 t
b111111110101 u
b111111100001 v
b111111100000 w
b111111111111111110100 x
b11111111010111111111 y
b111111100000 z
b111111111111111110100 {
#75000
0!
0(
#80000
1!
b100000100000010 '
1(
bz100000100000010 ,
b1000000000000000010000 -
b1000000000000000010000 .
b1000000000000000010000 /
b100100000001000010011 0
b1 1
b100 2
b1000000000000000010000 3
b1000100000100000001100 4
b100100000000000000000 5
b10 6
b11100 7
b10 8
b1 9
b1 :
b11 ;
b11 =
b11 >
b10000000 @
b100 A
b1 B
b100 C
b100 D
b11 E
b1000000000000000001100 F
b0 H
b0 K
b0 L
b10 M
1R
0S
b0 T
b11 V
b100100000001000010011 W
b10000000 Z
b10011 [
b100000100000010 ]
b0 ^
0_
b0 `
b100 a
b0 b
b100 c
b0 d
b11 e
0h
b11 m
b1000000000000000001100 o
b100 p
b1000000000000000010000 q
b1000100000100000001100 r
b100100000000000000000 s
b1 t
b1 u
b100 v
b100 w
b100000100000000000 x
b100100000 y
b100 z
b100000100000000000 {
#85000
0!
0(
#90000
1!
1(
b1000000000x00000010xx0 -
b1000000000000000010100 .
b1000000000000000010100 /
b1000011000000110010011 0
b10 1
b11 2
b1000000000100000010010 3
b1000011000000000010010 4
b1000011000000000000000 5
b100 6
bx 7
b100 8
b10 9
b10 :
b110 ;
b110 =
b110 >
b11 A
b10 B
b11 C
b11 D
b110 E
b1000000000000000010000 F
b0 H
b0 K
b0 L
b10 M
b0 T
b100 V
b1000011000000110010011 W
b10011 [
b0 ^
b110 e
b110 m
b1000000000000000010000 o
b11 p
b1000000000100000010010 q
b1000011000000000010010 r
b1000011000000000000000 s
b10 t
b10 u
b11 v
b100000000010 w
b11000000000000010 x
b1000011000 y
b100000000010 z
b11000000000000010 {
#95000
0!
0(
#100000
1!
b100010000000 '
1(
bz000100010000000 ,
b1000000000000000011000 -
b1000000000000000011000 .
b1000000000000000011000 /
b10100100000010001100011 0
b101 1
b1000 2
b1000000000000000011100 3
b1000100000100000011000 4
b10100100000000000000000 5
b11 6
b1010 7
b11 8
b1010 9
b0 :
b1101 ;
b1101 =
b1101 >
b10000 @
b100 A
b101 B
b1000 C
b1000 D
b1101 E
b1000000000000000010100 F
0G
b0 H
b0 K
b10 L
b0 M
0N
1Q
0R
b0 T
b101 V
b10100100000010001100011 W
b10000 Z
b1100011 [
b100010000000 ]
b0 ^
b0 `
b0 a
b100 b
b0 c
b1101 e
1f
0g
b1101 m
b1000000000000000010100 o
b1000 p
b1000000000000000011100 q
b1000100000100000011000 r
b10100100000000000000000 s
b101 t
b101 u
b1000 v
b1000 w
b100000100000000100 x
b10100100000 y
b1000 z
b100000100000000100 {
#105000
0!
0(
#110000
1!
b100000001111100 '
1(
bz100000001111100 ,
b1000000000xxxxxxx11x00 -
b10000000000000000001100 .
b1000000000000000011100 /
b11111111010111111111000011101111 0
b11111111111111111111111111110101 1
b11111111111111111111111111100001 2
b1000000000111111111000 3
b10000000000000000001100 4
b11111111010111111111000000000000 5
bx 6
bx 7
bx 8
bx 9
b0 :
bx ;
bx =
bx >
b1000 @
b11111 A
b10101 B
b1 C
b1 D
b1000000000000000011100 E
b1000000000000000011000 F
xG
b111 H
b0 K
b1 L
b0 M
1N
0Q
1S
b1111 T
b110 V
b11111111010111111111000011101111 W
b1000 Z
b1101111 [
b100000001111100 ]
b111 ^
1_
b1000 `
b10 b
b0 c
b1111 d
bx e
0f
xg
1h
b1000000000000000011100 m
b1000000000000000011000 o
b11111111111111111111111111100001 p
b1000000000111111111000 q
b10000000000000000001100 r
b11111111010111111111000000000000 s
b11111111111111111111111111110101 t
b111111110101 u
b111111100001 v
b111111100000 w
b111111111111111110100 x
b11111111010111111111 y
b111111100000 z
b111111111111111110100 {
#115000
0!
0(
#120000
1!
b100000100000010 '
1(
bz100000100000010 ,
b10000000000000000010000 -
b10000000000000000010000 .
b10000000000000000010000 /
b100100000001000010011 0
b1 1
b100 2
b10000000000000000010000 3
b10000100000100000001100 4
b100100000000000000000 5
b11 6
b1000000000000000011100 7
b11 8
b1 9
b1 :
b100 ;
b100 =
b100 >
b10000000 @
b100 A
b1 B
b100 C
b100 D
b100 E
b10000000000000000001100 F
b0 H
b0 K
b0 L
b10 M
1R
0S
b0 T
b11 V
b100100000001000010011 W
b10000000 Z
b10011 [
b100000100000010 ]
b0 ^
0_
b0 `
b100 a
b0 b
b100 c
b0 d
b100 e
0h
b100 m
b10000000000000000001100 o
b100 p
b10000000000000000010000 q
b10000100000100000001100 r
b100100000000000000000 s
b1 t
b1 u
b100 v
b100 w
b100000100000000000 x
b100100000 y
b100 z
b100000100000000000 {
#125000
0!
0(
#130000
1!
1(
b10000000000x00000010xx0 -
b10000000000000000010100 .
b10000000000000000010100 /
b1000011000000110010011 0
b10 1
b11 2
b10000000000100000010010 3
b10000011000000000010010 4
b1000011000000000000000 5
b110 6
bx 7
b110 8
b10 9
b10 :
b1000 ;
b1000 =
b1000 >
b11 A
b10 B
b11 C
b11 D
b1000 E
b10000000000000000010000 F
b0 H
b0 K
b0 L
b10 M
b0 T
b100 V
b1000011000000110010011 W
b10011 [
b0 ^
b1000 e
b1000 m
b10000000000000000010000 o
b11 p
b10000000000100000010010 q
b10000011000000000010010 r
b1000011000000000000000 s
b10 t
b10 u
b11 v
b100000000010 w
b11000000000000010 x
b1000011000 y
b100000000010 z
b11000000000000010 {
#135000
0!
0(
#140000
1!
b100010000000 '
1(
bz000100010000000 ,
b10000000000000000011000 -
b10000000000000000011000 .
b10000000000000000011000 /
b10100100000010001100011 0
b101 1
b1000 2
b10000000000000000011100 3
b10000100000100000011000 4
b10100100000000000000000 5
b100 6
b1010 7
b100 8
b1010 9
b0 :
b1110 ;
b1110 =
b1110 >
b10000 @
b100 A
b101 B
b1000 C
b1000 D
b1110 E
b10000000000000000010100 F
0G
b0 H
b0 K
b10 L
b0 M
0N
1Q
0R
b0 T
b101 V
b10100100000010001100011 W
b10000 Z
b1100011 [
b100010000000 ]
b0 ^
b0 `
b0 a
b100 b
b0 c
b1110 e
1f
0g
b1110 m
b10000000000000000010100 o
b1000 p
b10000000000000000011100 q
b10000100000100000011000 r
b10100100000000000000000 s
b101 t
b101 u
b1000 v
b1000 w
b100000100000000100 x
b10100100000 y
b1000 z
b100000100000000100 {
#145000
0!
0(
#150000
1!
b100000001111100 '
1(
bz100000001111100 ,
b10000000000xxxxxxx11x00 -
b11000000000000000001100 .
b10000000000000000011100 /
b11111111010111111111000011101111 0
b11111111111111111111111111110101 1
b11111111111111111111111111100001 2
b10000000000111111111000 3
b11000000000000000001100 4
b11111111010111111111000000000000 5
bx 6
bx 7
bx 8
bx 9
b0 :
bx ;
bx =
bx >
b1000 @
b11111 A
b10101 B
b1 C
b1 D
b10000000000000000011100 E
b10000000000000000011000 F
xG
b111 H
b0 K
b1 L
b0 M
1N
0Q
1S
b1111 T
b110 V
b11111111010111111111000011101111 W
b1000 Z
b1101111 [
b100000001111100 ]
b111 ^
1_
b1000 `
b10 b
b0 c
b1111 d
bx e
0f
xg
1h
b10000000000000000011100 m
b10000000000000000011000 o
b11111111111111111111111111100001 p
b10000000000111111111000 q
b11000000000000000001100 r
b11111111010111111111000000000000 s
b11111111111111111111111111110101 t
b111111110101 u
b111111100001 v
b111111100000 w
b111111111111111110100 x
b11111111010111111111 y
b111111100000 z
b111111111111111110100 {
#155000
0!
0(
#160000
1!
b100000100000010 '
1(
bz100000100000010 ,
b11000000000000000010000 -
b11000000000000000010000 .
b11000000000000000010000 /
b100100000001000010011 0
b1 1
b100 2
b11000000000000000010000 3
b11000100000100000001100 4
b100100000000000000000 5
b100 6
b10000000000000000011100 7
b100 8
b1 9
b1 :
b101 ;
b101 =
b101 >
b10000000 @
b100 A
b1 B
b100 C
b100 D
b101 E
b11000000000000000001100 F
b0 H
b0 K
b0 L
b10 M
1R
0S
b0 T
b11 V
b100100000001000010011 W
b10000000 Z
b10011 [
b100000100000010 ]
b0 ^
0_
b0 `
b100 a
b0 b
b100 c
b0 d
b101 e
0h
b101 m
b11000000000000000001100 o
b100 p
b11000000000000000010000 q
b11000100000100000001100 r
b100100000000000000000 s
b1 t
b1 u
b100 v
b100 w
b100000100000000000 x
b100100000 y
b100 z
b100000100000000000 {
#165000
0!
0(
#170000
1!
1(
b11000000000x00000010xx0 -
b11000000000000000010100 .
b11000000000000000010100 /
b1000011000000110010011 0
b10 1
b11 2
b11000000000100000010010 3
b11000011000000000010010 4
b1000011000000000000000 5
b1000 6
bx 7
b1000 8
b10 9
b10 :
b1010 ;
b1010 =
b1010 >
b11 A
b10 B
b11 C
b11 D
b1010 E
b11000000000000000010000 F
b0 H
b0 K
b0 L
b10 M
b0 T
b100 V
b1000011000000110010011 W
b10011 [
b0 ^
b1010 e
b1010 m
b11000000000000000010000 o
b11 p
b11000000000100000010010 q
b11000011000000000010010 r
b1000011000000000000000 s
b10 t
b10 u
b11 v
b100000000010 w
b11000000000000010 x
b1000011000 y
b100000000010 z
b11000000000000010 {
#175000
0!
0(
#180000
1!
b100010000000 '
1(
bz000100010000000 ,
b11000000000000000011000 -
b11000000000000000011000 .
b11000000000000000011000 /
b10100100000010001100011 0
b101 1
b1000 2
b11000000000000000011100 3
b11000100000100000011000 4
b10100100000000000000000 5
b101 6
b1010 7
b101 8
b1010 9
b0 :
b1111 ;
b1111 =
b1111 >
b10000 @
b100 A
b101 B
b1000 C
b1000 D
b1111 E
b11000000000000000010100 F
0G
b0 H
b0 K
b10 L
b0 M
0N
1Q
0R
b0 T
b101 V
b10100100000010001100011 W
b10000 Z
b1100011 [
b100010000000 ]
b0 ^
b0 `
b0 a
b100 b
b0 c
b1111 e
1f
0g
b1111 m
b11000000000000000010100 o
b1000 p
b11000000000000000011100 q
b11000100000100000011000 r
b10100100000000000000000 s
b101 t
b101 u
b1000 v
b1000 w
b100000100000000100 x
b10100100000 y
b1000 z
b100000100000000100 {
#185000
0!
0(
#190000
1!
b100000001111100 '
1(
bz100000001111100 ,
b11000000000xxxxxxx11x00 -
b100000000000000000001100 .
b11000000000000000011100 /
b11111111010111111111000011101111 0
b11111111111111111111111111110101 1
b11111111111111111111111111100001 2
b11000000000111111111000 3
b100000000000000000001100 4
b11111111010111111111000000000000 5
bx 6
bx 7
bx 8
bx 9
b0 :
bx ;
bx =
bx >
b1000 @
b11111 A
b10101 B
b1 C
b1 D
b11000000000000000011100 E
b11000000000000000011000 F
xG
b111 H
b0 K
b1 L
b0 M
1N
0Q
1S
b1111 T
b110 V
b11111111010111111111000011101111 W
b1000 Z
b1101111 [
b100000001111100 ]
b111 ^
1_
b1000 `
b10 b
b0 c
b1111 d
bx e
0f
xg
1h
b11000000000000000011100 m
b11000000000000000011000 o
b11111111111111111111111111100001 p
b11000000000111111111000 q
b100000000000000000001100 r
b11111111010111111111000000000000 s
b11111111111111111111111111110101 t
b111111110101 u
b111111100001 v
b111111100000 w
b111111111111111110100 x
b11111111010111111111 y
b111111100000 z
b111111111111111110100 {
#195000
0!
0(
#200000
1!
b100000100000010 '
1(
bz100000100000010 ,
b100000000000000000010000 -
b100000000000000000010000 .
b100000000000000000010000 /
b100100000001000010011 0
b1 1
b100 2
b100000000000000000010000 3
b100000100000100000001100 4
b100100000000000000000 5
b101 6
b11000000000000000011100 7
b101 8
b1 9
b1 :
b110 ;
b110 =
b110 >
b10000000 @
b100 A
b1 B
b100 C
b100 D
b110 E
b100000000000000000001100 F
b0 H
b0 K
b0 L
b10 M
1R
0S
b0 T
b11 V
b100100000001000010011 W
b10000000 Z
b10011 [
b100000100000010 ]
b0 ^
0_
b0 `
b100 a
b0 b
b100 c
b0 d
b110 e
0h
b110 m
b100000000000000000001100 o
b100 p
b100000000000000000010000 q
b100000100000100000001100 r
b100100000000000000000 s
b1 t
b1 u
b100 v
b100 w
b100000100000000000 x
b100100000 y
b100 z
b100000100000000000 {
#205000
0!
0(
#210000
1!
1(
b100000000000x00000010xx0 -
b100000000000000000010100 .
b100000000000000000010100 /
b1000011000000110010011 0
b10 1
b11 2
b100000000000100000010010 3
b100000011000000000010010 4
b1000011000000000000000 5
b1010 6
bx 7
b1010 8
b10 9
b10 :
b1100 ;
b1100 =
b1100 >
b11 A
b10 B
b11 C
b11 D
b1100 E
b100000000000000000010000 F
b0 H
b0 K
b0 L
b10 M
b0 T
b100 V
b1000011000000110010011 W
b10011 [
b0 ^
b1100 e
b1100 m
b100000000000000000010000 o
b11 p
b100000000000100000010010 q
b100000011000000000010010 r
b1000011000000000000000 s
b10 t
b10 u
b11 v
b100000000010 w
b11000000000000010 x
b1000011000 y
b100000000010 z
b11000000000000010 {
#215000
0!
0(
#220000
1!
b100010000000 '
1(
bz000100010000000 ,
b100000000000000000011000 -
b100000000000000000011000 .
b100000000000000000011000 /
b10100100000010001100011 0
b101 1
b1000 2
b100000000000000000011100 3
b100000100000100000011000 4
b10100100000000000000000 5
b110 6
b1010 7
b110 8
b1010 9
b0 :
b10000 ;
b10000 =
b10000 >
b10000 @
b100 A
b101 B
b1000 C
b1000 D
b10000 E
b100000000000000000010100 F
0G
b0 H
b0 K
b10 L
b0 M
0N
1Q
0R
b0 T
b101 V
b10100100000010001100011 W
b10000 Z
b1100011 [
b100010000000 ]
b0 ^
b0 `
b0 a
b100 b
b0 c
b10000 e
1f
0g
b10000 m
b100000000000000000010100 o
b1000 p
b100000000000000000011100 q
b100000100000100000011000 r
b10100100000000000000000 s
b101 t
b101 u
b1000 v
b1000 w
b100000100000000100 x
b10100100000 y
b1000 z
b100000100000000100 {
#225000
0!
0(
#230000
1!
b100000001111100 '
1(
bz100000001111100 ,
b100000000000xxxxxxx11x00 -
b101000000000000000001100 .
b100000000000000000011100 /
b11111111010111111111000011101111 0
b11111111111111111111111111110101 1
b11111111111111111111111111100001 2
b100000000000111111111000 3
b101000000000000000001100 4
b11111111010111111111000000000000 5
bx 6
bx 7
bx 8
bx 9
b0 :
bx ;
bx =
bx >
b1000 @
b11111 A
b10101 B
b1 C
b1 D
b100000000000000000011100 E
b100000000000000000011000 F
xG
b111 H
b0 K
b1 L
b0 M
1N
0Q
1S
b1111 T
b110 V
b11111111010111111111000011101111 W
b1000 Z
b1101111 [
b100000001111100 ]
b111 ^
1_
b1000 `
b10 b
b0 c
b1111 d
bx e
0f
xg
1h
b100000000000000000011100 m
b100000000000000000011000 o
b11111111111111111111111111100001 p
b100000000000111111111000 q
b101000000000000000001100 r
b11111111010111111111000000000000 s
b11111111111111111111111111110101 t
b111111110101 u
b111111100001 v
b111111100000 w
b111111111111111110100 x
b11111111010111111111 y
b111111100000 z
b111111111111111110100 {
#235000
0!
0(
#240000
1!
b100000100000010 '
1(
bz100000100000010 ,
b101000000000000000010000 -
b101000000000000000010000 .
b101000000000000000010000 /
b100100000001000010011 0
b1 1
b100 2
b101000000000000000010000 3
b101000100000100000001100 4
b100100000000000000000 5
b110 6
b100000000000000000011100 7
b110 8
b1 9
b1 :
b111 ;
b111 =
b111 >
b10000000 @
b100 A
b1 B
b100 C
b100 D
b111 E
b101000000000000000001100 F
b0 H
b0 K
b0 L
b10 M
1R
0S
b0 T
b11 V
b100100000001000010011 W
b10000000 Z
b10011 [
b100000100000010 ]
b0 ^
0_
b0 `
b100 a
b0 b
b100 c
b0 d
b111 e
0h
b111 m
b101000000000000000001100 o
b100 p
b101000000000000000010000 q
b101000100000100000001100 r
b100100000000000000000 s
b1 t
b1 u
b100 v
b100 w
b100000100000000000 x
b100100000 y
b100 z
b100000100000000000 {
#245000
0!
0(
#250000
1!
1(
b101000000000x00000010xx0 -
b101000000000000000010100 .
b101000000000000000010100 /
b1000011000000110010011 0
b10 1
b11 2
b101000000000100000010010 3
b101000011000000000010010 4
b1000011000000000000000 5
b1100 6
bx 7
b1100 8
b10 9
b10 :
b1110 ;
b1110 =
b1110 >
b11 A
b10 B
b11 C
b11 D
b1110 E
b101000000000000000010000 F
b0 H
b0 K
b0 L
b10 M
b0 T
b100 V
b1000011000000110010011 W
b10011 [
b0 ^
b1110 e
b1110 m
b101000000000000000010000 o
b11 p
b101000000000100000010010 q
b101000011000000000010010 r
b1000011000000000000000 s
b10 t
b10 u
b11 v
b100000000010 w
b11000000000000010 x
b1000011000 y
b100000000010 z
b11000000000000010 {
#255000
0!
0(
#260000
1!
b100010000000 '
1(
bz000100010000000 ,
b101000000000000000011000 -
b101000000000000000011000 .
b101000000000000000011000 /
b10100100000010001100011 0
b101 1
b1000 2
b101000000000000000011100 3
b101000100000100000011000 4
b10100100000000000000000 5
b111 6
b1010 7
b111 8
b1010 9
b0 :
b10001 ;
b10001 =
b10001 >
b10000 @
b100 A
b101 B
b1000 C
b1000 D
b10001 E
b101000000000000000010100 F
0G
b0 H
b0 K
b10 L
b0 M
0N
1Q
0R
b0 T
b101 V
b10100100000010001100011 W
b10000 Z
b1100011 [
b100010000000 ]
b0 ^
b0 `
b0 a
b100 b
b0 c
b10001 e
1f
0g
b10001 m
b101000000000000000010100 o
b1000 p
b101000000000000000011100 q
b101000100000100000011000 r
b10100100000000000000000 s
b101 t
b101 u
b1000 v
b1000 w
b100000100000000100 x
b10100100000 y
b1000 z
b100000100000000100 {
#265000
0!
0(
#270000
1!
b100000001111100 '
1(
bz100000001111100 ,
b101000000000xxxxxxx11x00 -
b110000000000000000001100 .
b101000000000000000011100 /
b11111111010111111111000011101111 0
b11111111111111111111111111110101 1
b11111111111111111111111111100001 2
b101000000000111111111000 3
b110000000000000000001100 4
b11111111010111111111000000000000 5
bx 6
bx 7
bx 8
bx 9
b0 :
bx ;
bx =
bx >
b1000 @
b11111 A
b10101 B
b1 C
b1 D
b101000000000000000011100 E
b101000000000000000011000 F
xG
b111 H
b0 K
b1 L
b0 M
1N
0Q
1S
b1111 T
b110 V
b11111111010111111111000011101111 W
b1000 Z
b1101111 [
b100000001111100 ]
b111 ^
1_
b1000 `
b10 b
b0 c
b1111 d
bx e
0f
xg
1h
b101000000000000000011100 m
b101000000000000000011000 o
b11111111111111111111111111100001 p
b101000000000111111111000 q
b110000000000000000001100 r
b11111111010111111111000000000000 s
b11111111111111111111111111110101 t
b111111110101 u
b111111100001 v
b111111100000 w
b111111111111111110100 x
b11111111010111111111 y
b111111100000 z
b111111111111111110100 {
#275000
0!
0(
#280000
1!
b100000100000010 '
1(
bz100000100000010 ,
b110000000000000000010000 -
b110000000000000000010000 .
b110000000000000000010000 /
b100100000001000010011 0
b1 1
b100 2
b110000000000000000010000 3
b110000100000100000001100 4
b100100000000000000000 5
b111 6
b101000000000000000011100 7
b111 8
b1 9
b1 :
b1000 ;
b1000 =
b1000 >
b10000000 @
b100 A
b1 B
b100 C
b100 D
b1000 E
b110000000000000000001100 F
b0 H
b0 K
b0 L
b10 M
1R
0S
b0 T
b11 V
b100100000001000010011 W
b10000000 Z
b10011 [
b100000100000010 ]
b0 ^
0_
b0 `
b100 a
b0 b
b100 c
b0 d
b1000 e
0h
b1000 m
b110000000000000000001100 o
b100 p
b110000000000000000010000 q
b110000100000100000001100 r
b100100000000000000000 s
b1 t
b1 u
b100 v
b100 w
b100000100000000000 x
b100100000 y
b100 z
b100000100000000000 {
#285000
0!
0(
