RV32IMC/RV32IMC.sim/sim_1/behav/xsim/fetch.vcd
$date
   Sun Jan 21 22:08:04 2024
$end
$version
  2018.2
$end
$timescale
  1ps
$end
$scope module memo_tb $end
$var reg 1 ! clk $end
$var reg 1 " we $end
$var reg 1 # reset $end
$var reg 32 $ data_in [31:0] $end
$var wire 32 % d1 [31:0] $end
$var wire 32 & d2 [31:0] $end
$var wire 15 ' data_out [14:0] $end
$scope module m $end
$var wire 1 ( clk $end
$var wire 1 ) we $end
$var wire 1 * reset $end
$var wire 32 + data_in [31:0] $end
$var wire 15 ' data_out [14:0] $end
$var wire 32 , OUT_T [31:0] $end
$var wire 32 - addr [31:0] $end
$var wire 32 . adr [31:0] $end
$var wire 32 / a [31:0] $end
$var wire 32 0 b [31:0] $end
$var wire 32 1 I [31:0] $end
$var wire 32 2 S [31:0] $end
$var wire 32 3 SB [31:0] $end
$var wire 32 4 UJ [31:0] $end
$var wire 32 5 U [31:0] $end
$var wire 32 6 op1 [31:0] $end
$var wire 32 7 op2 [31:0] $end
$var wire 32 8 faltu [31:0] $end
$var wire 32 9 reg_1 [31:0] $end
$var wire 32 : reg_2 [31:0] $end
$var wire 32 ; im [31:0] $end
$var wire 32 < ALU_OUTPUT [31:0] $end
$var wire 32 = write_adder [31:0] $end
$var wire 32 > write_ba [31:0] $end
$var wire 32 ? rite_ba [31:0] $end
$var wire 32 @ rb1 [31:0] $end
$var wire 9 A c [8:0] $end
$var wire 5 B r1 [4:0] $end
$var wire 5 C r2 [4:0] $end
$var wire 5 D rf [4:0] $end
$var reg 5 E re [4:0] $end
$var reg 32 F wb [31:0] $end
$var wire 12 G after_PC [11:0] $end
$var wire 1 H branch_p $end
$var reg 3 I fun_3 [2:0] $end
$var reg 32 J ac [31:0] $end
$var reg 32 K addr1 [31:0] $end
$var reg 2 L opa [1:0] $end
$var reg 2 M next_pc [1:0] $end
$var reg 2 N imm_sel [1:0] $end
$var reg 1 O reg_write $end
$var reg 1 P mem_to_reg $end
$var reg 1 Q mem_write $end
$var reg 1 R branch1 $end
$var reg 1 S opb $end
$var reg 1 T j $end
$var reg 4 U alu_op [3:0] $end
$var wire 32 V zero [31:0] $end
$scope module adder $end
$var wire 1 ) we $end
$var wire 1 ( clk $end
$var wire 32 . adr [31:0] $end
$var wire 32 / a [31:0] $end
$upscope $end
$scope module mux2_4 $end
$var wire 2 W sel [1:0] $end
$var wire 32 / a [31:0] $end
$var wire 32 4 b [31:0] $end
$var wire 32 , c [31:0] $end
$var wire 32 X d [31:0] $end
$var reg 32 Y o [31:0] $end
$upscope $end
$scope module PC $end
$var wire 1 ( clk $end
$var wire 1 * we $end
$var wire 32 - in [31:0] $end
$var reg 32 Z out [31:0] $end
$upscope $end
$scope module ram $end
$var wire 1 ( clk $end
$var wire 1 ) we $end
$var wire 32 + din [31:0] $end
$var wire 12 G addre [11:0] $end
$var reg 32 [ dout [31:0] $end
$var parameter 32 \ address [31:0] $end
$var parameter 32 ] size [31:0] $end
$upscope $end
$scope module control $end
$var wire 32 0 opcode [31:0] $end
$var reg 9 ^ dec [8:0] $end
$var reg 7 _ c [6:0] $end
$var reg 25 ` b [31:7] $end
$upscope $end
$scope module unit $end
$var wire 9 A dec [8:0] $end
$var wire 32 0 in [31:0] $end
$var reg 15 a un [14:0] $end
$var reg 3 b fun_3 [2:0] $end
$var reg 1 c fun_7 $end
$var reg 4 d a [3:0] $end
$var reg 4 e c [3:0] $end
$var reg 3 f b [2:0] $end
$var reg 3 g d [2:0] $end
$upscope $end
$scope module reg_file $end
$var wire 1 ( clk $end
$var wire 1 * reset $end
$var wire 5 B rs1 [4:0] $end
$var wire 5 C rs2 [4:0] $end
$var wire 5 D rd [4:0] $end
$var wire 32 h inp [31:0] $end
$var wire 32 6 ou1 [31:0] $end
$var wire 32 7 ou2 [31:0] $end
$var integer 32 i i $end
$upscope $end
$scope module immediate $end
$var wire 32 0 instruction [31:0] $end
$var wire 32 . pc [31:0] $end
$var reg 32 j S [31:0] $end
$var reg 32 k SB [31:0] $end
$var reg 32 l UJ [31:0] $end
$var reg 32 m U [31:0] $end
$var reg 32 n I [31:0] $end
$var reg 12 o II [11:0] $end
$var reg 12 p SS [11:0] $end
$var reg 12 q az [11:0] $end
$var reg 21 r ay [20:0] $end
$var reg 32 s ax [31:0] $end
$var reg 32 t sb1 [31:0] $end
$var reg 32 u k [31:0] $end
$upscope $end
$scope module mux2_40 $end
$var wire 2 v sel [1:0] $end
$var wire 32 6 a [31:0] $end
$var wire 32 / b [31:0] $end
$var wire 32 , c [31:0] $end
$var wire 32 V d [31:0] $end
$var reg 32 w o [31:0] $end
$upscope $end
$scope module mux2_42 $end
$var wire 2 x sel [1:0] $end
$var wire 32 V a [31:0] $end
$var wire 32 5 b [31:0] $end
$var wire 32 1 c [31:0] $end
$var wire 32 2 d [31:0] $end
$var reg 32 y o [31:0] $end
$upscope $end
$scope module mux1_20 $end
$var wire 1 z sel $end
$var wire 32 7 a [31:0] $end
$var wire 32 ; b [31:0] $end
$var reg 32 { c [31:0] $end
$upscope $end
$scope module ALU $end
$var wire 4 | op [3:0] $end
$var wire 32 9 op1 [31:0] $end
$var wire 32 : op2 [31:0] $end
$var reg 32 } res [31:0] $end
$upscope $end
$scope module branch $end
$var wire 32 9 op1 [31:0] $end
$var wire 32 : op2 [31:0] $end
$var wire 1 ~ en $end
$var reg 1 !! re $end
$var wire 1 "! fu_3 $end
$upscope $end
$scope module data_mem $end
$var wire 1 ( clk $end
$var wire 1 #! str $end
$var wire 1 $! ld $end
$var wire 32 < addr [31:0] $end
$var wire 32 7 d [31:0] $end
$var reg 32 %! resu [31:0] $end
$var reg 12 &! ad1 [11:0] $end
$upscope $end
$scope module mux1_21 $end
$var wire 1 '! sel $end
$var wire 32 < a [31:0] $end
$var wire 32 = b [31:0] $end
$var reg 32 (! c [31:0] $end
$upscope $end
$scope module mux1_22 $end
$var wire 1 )! sel $end
$var wire 32 > a [31:0] $end
$var wire 32 V b [31:0] $end
$var reg 32 *! c [31:0] $end
$upscope $end
$scope module mux1_23 $end
$var wire 1 H sel $end
$var wire 32 / a [31:0] $end
$var wire 32 3 b [31:0] $end
$var reg 32 +! c [31:0] $end
$upscope $end
$upscope $end
$upscope $end
$enddefinitions $end
#0
$dumpvars
1!
x!!
1"
x"!
x#
x#!
bx $
x$!
bz %
bx %!
bz &
bx &!
bx '
x'!
1(
bx (!
1)
x)!
x*
bx *!
bx +
bx +!
bx ,
b0 -
bx .
b0 /
bx 0
bx 1
bx 2
bx 3
bx 4
bx 5
bx 6
bx 7
bz 8
bx 9
bx :
bx ;
bx <
bx =
bx >
bx ?
bz @
bx A
bx B
bx C
bx D
bx E
bx F
bx G
xH
bx I
bx J
b0 K
bx L
b0 M
bx N
xO
xP
xQ
xR
xS
xT
bx U
b0 V
b0 W
bx X
b0 Y
bx Z
bx [
b1100 \
b100000 ]
bx ^
bx _
bx `
bx a
bx b
xc
bx d
bx e
bx f
bx g
bx h
bx i
bx j
bx k
bx l
bx m
bx n
bx o
bx p
bx q
bx r
bx s
bx t
bx u
bx v
bx w
bx x
bx y
xz
bx {
bx |
bx }
x~
$end
#5000
0!
0#
0(
0*
#10000
1!
0"
0"!
0#!
0$!
b100000100000010 '
0'!
1(
b10 (!
0)
0)!
b10 *!
b100 -
b0 .
b100 /
b1000000000000110010011 0
b10 1
b11 2
b100000000010 3
b10 4
b1000000000000000000000 5
b0 6
bx 7
b0 9
b10 :
b10 ;
b10 <
b10 >
b10 ?
b10000000 A
b0 B
b10 C
b11 D
b11 E
b10 F
b0 G
b0 I
b0 L
b0 M
b10 N
1O
0P
0Q
0R
1S
0T
b0 U
b0 W
b10 X
b100 Y
b0 Z
b1000000000000110010011 [
b10000000 ^
b10011 _
b100000100000010 a
b0 b
0c
b0 d
b100 e
b0 f
b100 g
b10 h
b11 j
b100000000010 k
b10 l
b1000000000000000000000 m
b10 n
b10 o
b11 p
b100000000010 q
b10 r
b1000000000 s
b100000000010 t
b10 u
b0 v
b0 w
b10 x
b10 y
1z
b10 {
b0 |
b10 }
0~
#15000
0!
0(
#20000
1!
1(
b1 (!
b1 *!
b1000 -
b100 .
b1000 /
b100000000001000010011 0
b1 1
b100 2
b1000 3
b100000000100 4
b100000000000000000000 5
b0 6
bx 7
b1 :
b1 ;
b1 <
b1 >
b1 ?
b1 C
b100 D
b100 E
b1 F
b1 G
b0 I
b0 L
b0 M
b10 N
b0 U
b1 X
b1000 Y
b100 Z
b100000000001000010011 [
b10011 _
b0 b
b1 h
b100 j
b1000 k
b100000000100 l
b100000000000000000000 m
b1 n
b1 o
b100 p
b100 q
b100000000000 r
b100000000 s
b100 t
b100000000000 u
b0 w
b1 y
b1 {
b1 }
#25000
0!
0(
#30000
1!
1(
b1010 (!
b1010 *!
b1100 -
b1000 .
b1100 /
b101000000000001010010011 0
b1010 1
b101 2
b100000001100 3
b10010 4
b101000000000000000000000 5
b0 6
bx 7
b1010 :
b1010 ;
b1010 <
b1010 >
b1010 ?
b1010 C
b101 D
b101 E
b1010 F
b10 G
b0 I
b0 L
b0 M
b10 N
b0 U
b1010 X
b1100 Y
b1000 Z
b101000000000001010010011 [
b10011 _
b0 b
b1010 h
b101 j
b100000001100 k
b10010 l
b101000000000000000000000 m
b1010 n
b1010 o
b101 p
b100000000100 q
b1010 r
b101000000000 s
b100000000100 t
b1010 u
b0 w
b1010 y
b1010 {
b1010 }
#35000
0!
0(
#40000
1!
1(
b10 (!
b10 *!
b10000 -
b1100 .
b10000 /
b100100000001000010011 0
b1 1
b100 2
b10000 3
b100000100000001100 4
b100100000000000000000 5
b1 6
bx 7
b1 9
b1 :
b1 ;
b10 <
b10 >
b10 ?
b100 B
b1 C
b100 D
b100 E
b10 F
b11 G
b0 I
b0 L
b0 M
b10 N
b0 U
b10 X
b10000 Y
b1100 Z
b100100000001000010011 [
b10011 _
b0 b
b10 h
b100 j
b10000 k
b100000100000001100 l
b100100000000000000000 m
b1 n
b1 o
b100 p
b100 q
b100000100000000000 r
b100100000 s
b100 t
b100000100000000000 u
b1 w
b1 y
b1 {
b10 }
#45000
0!
0(
#50000
1!
1(
b100 (!
b100 *!
b10100 -
b10000 .
b10100 /
b1000011000000110010011 0
b10 1
b11 2
b100000010010 3
b11000000000010010 4
b1000011000000000000000 5
b10 6
bx 7
b10 9
b10 :
b10 ;
b100 <
b100 >
b100 ?
b11 B
b10 C
b11 D
b11 E
b100 F
b100 G
b0 I
b0 L
b0 M
b10 N
b0 U
b100 X
b10100 Y
b10000 Z
b1000011000000110010011 [
b10011 _
b0 b
b100 h
b11 j
b100000010010 k
b11000000000010010 l
b1000011000000000000000 m
b10 n
b10 o
b11 p
b100000000010 q
b11000000000000010 r
b1000011000 s
b100000000010 t
b11000000000000010 u
b10 w
b10 y
b10 {
b100 }
#55000
0!
0(
#60000
1!
0!!
b100010000000 '
1(
b1100 (!
b1100 *!
b11000 +!
b11000 ,
b11000 -
b10100 .
b11000 /
b10100100000010001100011 0
b101 1
b1000 2
b11100 3
b100000100000011000 4
b10100100000000000000000 5
b10 6
b1010 7
b10 9
b1010 :
b0 ;
b1100 <
b1100 >
b1100 ?
b10000 A
b100 B
b101 C
b1000 D
b1000 E
b1100 F
b101 G
0H
b0 I
b0 L
b10 M
b0 N
0O
1R
0S
b0 U
b10 W
b111 X
b11000 Y
b10100 Z
b10100100000010001100011 [
b10000 ^
b1100011 _
b100010000000 a
b0 b
b0 d
b0 e
b100 f
b0 g
b1100 h
b1000 j
b11100 k
b100000100000011000 l
b10100100000000000000000 m
b101 n
b101 o
b1000 p
b1000 q
b100000100000000100 r
b10100100000 s
b1000 t
b100000100000000100 u
b10 w
b0 x
b0 y
0z
b1010 {
b1100 }
1~
#65000
0!
0(
#70000
1!
x!!
1"!
b100000001111100 '
1(
bx (!
bx *!
b111111111000 +!
b111111111000 ,
b1000000000000000001100 -
b11000 .
b11100 /
b11111111010111111111000011101111 0
b11111111111111111111111111110101 1
b11111111111111111111111111100001 2
b111111111000 3
b1000000000000000001100 4
b11111111010111111111000000000000 5
bx 6
bx 7
bx 9
bx :
bx <
bx >
bx ?
b1000 A
b11111 B
b10101 C
b1 D
b1 E
b11100 F
b110 G
xH
b111 I
b0 L
b1 M
b0 N
1O
0R
1T
b1111 U
b1 W
bx X
b1000000000000000001100 Y
b11000 Z
b11111111010111111111000011101111 [
b1000 ^
b1101111 _
b100000001111100 a
b111 b
1c
b1000 d
b10 f
b0 g
b11100 h
b11111111111111111111111111100001 j
b111111111000 k
b1000000000000000001100 l
b11111111010111111111000000000000 m
b11111111111111111111111111110101 n
b111111110101 o
b111111100001 p
b111111100000 q
b111111111111111110100 r
b11111111010111111111 s
b111111100000 t
b111111111111111110100 u
bx w
b0 y
bx {
b1111 |
bx }
0~
#75000
0!
0(
#80000
1!
0"!
b100000100000010 '
1(
b11 (!
b11 *!
b1000000000000000010000 -
b1000000000000000001100 .
b1000000000000000010000 /
b100100000001000010011 0
b1 1
b100 2
b1000000000000000010000 3
b1000100000100000001100 4
b100100000000000000000 5
b10 6
b11100 7
b10 9
b1 :
b1 ;
b11 <
b11 >
b11 ?
b10000000 A
b100 B
b1 C
b100 D
b100 E
b11 F
b11 G
b0 I
b0 L
b0 M
b10 N
1S
0T
b0 U
b0 W
b11 X
b1000000000000000010000 Y
b1000000000000000001100 Z
b100100000001000010011 [
b10000000 ^
b10011 _
b100000100000010 a
b0 b
0c
b0 d
b100 e
b0 f
b100 g
b11 h
b100 j
b1000000000000000010000 k
b1000100000100000001100 l
b100100000000000000000 m
b1 n
b1 o
b100 p
b100 q
b100000100000000000 r
b100100000 s
b100 t
b100000100000000000 u
b10 w
b10 x
b1 y
1z
b1 {
b0 |
b11 }
#85000
0!
0(
#90000
1!
1(
b110 (!
b110 *!
b1000000000000000010100 -
b1000000000000000010000 .
b1000000000000000010100 /
b1000011000000110010011 0
b10 1
b11 2
b1000000000100000010010 3
b1000011000000000010010 4
b1000011000000000000000 5
b100 6
bx 7
b100 9
b10 :
b10 ;
b110 <
b110 >
b110 ?
b11 B
b10 C
b11 D
b11 E
b110 F
b100 G
b0 I
b0 L
b0 M
b10 N
b0 U
b110 X
b1000000000000000010100 Y
b1000000000000000010000 Z
b1000011000000110010011 [
b10011 _
b0 b
b110 h
b11 j
b1000000000100000010010 k
b1000011000000000010010 l
b1000011000000000000000 m
b10 n
b10 o
b11 p
b100000000010 q
b11000000000000010 r
b1000011000 s
b100000000010 t
b11000000000000010 u
b100 w
b10 y
b10 {
b110 }
#95000
0!
0(
#100000
1!
0!!
b100010000000 '
1(
b1101 (!
b1101 *!
b1000000000000000011000 +!
b1000000000000000011000 ,
b1000000000000000011000 -
b1000000000000000010100 .
b1000000000000000011000 /
b10100100000010001100011 0
b101 1
b1000 2
b1000000000000000011100 3
b1000100000100000011000 4
b10100100000000000000000 5
b11 6
b1010 7
b11 9
b1010 :
b0 ;
b1101 <
b1101 >
b1101 ?
b10000 A
b100 B
b101 C
b1000 D
b1000 E
b1101 F
b101 G
0H
b0 I
b0 L
b10 M
b0 N
0O
1R
0S
b0 U
b10 W
b1000 X
b1000000000000000011000 Y
b1000000000000000010100 Z
b10100100000010001100011 [
b10000 ^
b1100011 _
b100010000000 a
b0 b
b0 d
b0 e
b100 f
b0 g
b1101 h
b1000 j
b1000000000000000011100 k
b1000100000100000011000 l
b10100100000000000000000 m
b101 n
b101 o
b1000 p
b1000 q
b100000100000000100 r
b10100100000 s
b1000 t
b100000100000000100 u
b11 w
b0 x
b0 y
0z
b1010 {
b1101 }
1~
#105000
0!
0(
#110000
1!
x!!
1"!
b100000001111100 '
1(
bx (!
bx *!
b1000000000111111111000 +!
b1000000000111111111000 ,
b10000000000000000001100 -
b1000000000000000011000 .
b1000000000000000011100 /
b11111111010111111111000011101111 0
b11111111111111111111111111110101 1
b11111111111111111111111111100001 2
b1000000000111111111000 3
b10000000000000000001100 4
b11111111010111111111000000000000 5
bx 6
bx 7
bx 9
bx :
bx <
bx >
bx ?
b1000 A
b11111 B
b10101 C
b1 D
b1 E
b1000000000000000011100 F
b110 G
xH
b111 I
b0 L
b1 M
b0 N
1O
0R
1T
b1111 U
b1 W
bx X
b10000000000000000001100 Y
b1000000000000000011000 Z
b11111111010111111111000011101111 [
b1000 ^
b1101111 _
b100000001111100 a
b111 b
1c
b1000 d
b10 f
b0 g
b1000000000000000011100 h
b11111111111111111111111111100001 j
b1000000000111111111000 k
b10000000000000000001100 l
b11111111010111111111000000000000 m
b11111111111111111111111111110101 n
b111111110101 o
b111111100001 p
b111111100000 q
b111111111111111110100 r
b11111111010111111111 s
b111111100000 t
b111111111111111110100 u
bx w
b0 y
bx {
b1111 |
bx }
0~
#115000
0!
0(
#120000
1!
0"!
b100000100000010 '
1(
b100 (!
b100 *!
b10000000000000000010000 -
b10000000000000000001100 .
b10000000000000000010000 /
b100100000001000010011 0
b1 1
b100 2
b10000000000000000010000 3
b10000100000100000001100 4
b100100000000000000000 5
b11 6
b1000000000000000011100 7
b11 9
b1 :
b1 ;
b100 <
b100 >
b100 ?
b10000000 A
b100 B
b1 C
b100 D
b100 E
b100 F
b11 G
b0 I
b0 L
b0 M
b10 N
1S
0T
b0 U
b0 W
b100 X
b10000000000000000010000 Y
b10000000000000000001100 Z
b100100000001000010011 [
b10000000 ^
b10011 _
b100000100000010 a
b0 b
0c
b0 d
b100 e
b0 f
b100 g
b100 h
b100 j
b10000000000000000010000 k
b10000100000100000001100 l
b100100000000000000000 m
b1 n
b1 o
b100 p
b100 q
b100000100000000000 r
b100100000 s
b100 t
b100000100000000000 u
b11 w
b10 x
b1 y
1z
b1 {
b0 |
b100 }
#125000
0!
0(
#130000
1!
1(
b1000 (!
b1000 *!
b10000000000000000010100 -
b10000000000000000010000 .
b10000000000000000010100 /
b1000011000000110010011 0
b10 1
b11 2
b10000000000100000010010 3
b10000011000000000010010 4
b1000011000000000000000 5
b110 6
bx 7
b110 9
b10 :
b10 ;
b1000 <
b1000 >
b1000 ?
b11 B
b10 C
b11 D
b11 E
b1000 F
b100 G
b0 I
b0 L
b0 M
b10 N
b0 U
b1000 X
b10000000000000000010100 Y
b10000000000000000010000 Z
b1000011000000110010011 [
b10011 _
b0 b
b1000 h
b11 j
b10000000000100000010010 k
b10000011000000000010010 l
b1000011000000000000000 m
b10 n
b10 o
b11 p
b100000000010 q
b11000000000000010 r
b1000011000 s
b100000000010 t
b11000000000000010 u
b110 w
b10 y
b10 {
b1000 }
#135000
0!
0(
#140000
1!
0!!
b100010000000 '
1(
b1110 (!
b1110 *!
b10000000000000000011000 +!
b10000000000000000011000 ,
b10000000000000000011000 -
b10000000000000000010100 .
b10000000000000000011000 /
b10100100000010001100011 0
b101 1
b1000 2
b10000000000000000011100 3
b10000100000100000011000 4
b10100100000000000000000 5
b100 6
b1010 7
b100 9
b1010 :
b0 ;
b1110 <
b1110 >
b1110 ?
b10000 A
b100 B
b101 C
b1000 D
b1000 E
b1110 F
b101 G
0H
b0 I
b0 L
b10 M
b0 N
0O
1R
0S
b0 U
b10 W
b1001 X
b10000000000000000011000 Y
b10000000000000000010100 Z
b10100100000010001100011 [
b10000 ^
b1100011 _
b100010000000 a
b0 b
b0 d
b0 e
b100 f
b0 g
b1110 h
b1000 j
b10000000000000000011100 k
b10000100000100000011000 l
b10100100000000000000000 m
b101 n
b101 o
b1000 p
b1000 q
b100000100000000100 r
b10100100000 s
b1000 t
b100000100000000100 u
b100 w
b0 x
b0 y
0z
b1010 {
b1110 }
1~
#145000
0!
0(
#150000
1!
x!!
1"!
b100000001111100 '
1(
bx (!
bx *!
b10000000000111111111000 +!
b10000000000111111111000 ,
b11000000000000000001100 -
b10000000000000000011000 .
b10000000000000000011100 /
b11111111010111111111000011101111 0
b11111111111111111111111111110101 1
b11111111111111111111111111100001 2
b10000000000111111111000 3
b11000000000000000001100 4
b11111111010111111111000000000000 5
bx 6
bx 7
bx 9
bx :
bx <
bx >
bx ?
b1000 A
b11111 B
b10101 C
b1 D
b1 E
b10000000000000000011100 F
b110 G
xH
b111 I
b0 L
b1 M
b0 N
1O
0R
1T
b1111 U
b1 W
bx X
b11000000000000000001100 Y
b10000000000000000011000 Z
b11111111010111111111000011101111 [
b1000 ^
b1101111 _
b100000001111100 a
b111 b
1c
b1000 d
b10 f
b0 g
b10000000000000000011100 h
b11111111111111111111111111100001 j
b10000000000111111111000 k
b11000000000000000001100 l
b11111111010111111111000000000000 m
b11111111111111111111111111110101 n
b111111110101 o
b111111100001 p
b111111100000 q
b111111111111111110100 r
b11111111010111111111 s
b111111100000 t
b111111111111111110100 u
bx w
b0 y
bx {
b1111 |
bx }
0~
#155000
0!
0(
#160000
1!
0"!
b100000100000010 '
1(
b101 (!
b101 *!
b11000000000000000010000 -
b11000000000000000001100 .
b11000000000000000010000 /
b100100000001000010011 0
b1 1
b100 2
b11000000000000000010000 3
b11000100000100000001100 4
b100100000000000000000 5
b100 6
b10000000000000000011100 7
b100 9
b1 :
b1 ;
b101 <
b101 >
b101 ?
b10000000 A
b100 B
b1 C
b100 D
b100 E
b101 F
b11 G
b0 I
b0 L
b0 M
b10 N
1S
0T
b0 U
b0 W
b101 X
b11000000000000000010000 Y
b11000000000000000001100 Z
b100100000001000010011 [
b10000000 ^
b10011 _
b100000100000010 a
b0 b
0c
b0 d
b100 e
b0 f
b100 g
b101 h
b100 j
b11000000000000000010000 k
b11000100000100000001100 l
b100100000000000000000 m
b1 n
b1 o
b100 p
b100 q
b100000100000000000 r
b100100000 s
b100 t
b100000100000000000 u
b100 w
b10 x
b1 y
1z
b1 {
b0 |
b101 }
#165000
0!
0(
#170000
1!
1(
b1010 (!
b1010 *!
b11000000000000000010100 -
b11000000000000000010000 .
b11000000000000000010100 /
b1000011000000110010011 0
b10 1
b11 2
b11000000000100000010010 3
b11000011000000000010010 4
b1000011000000000000000 5
b1000 6
bx 7
b1000 9
b10 :
b10 ;
b1010 <
b1010 >
b1010 ?
b11 B
b10 C
b11 D
b11 E
b1010 F
b100 G
b0 I
b0 L
b0 M
b10 N
b0 U
b1010 X
b11000000000000000010100 Y
b11000000000000000010000 Z
b1000011000000110010011 [
b10011 _
b0 b
b1010 h
b11 j
b11000000000100000010010 k
b11000011000000000010010 l
b1000011000000000000000 m
b10 n
b10 o
b11 p
b100000000010 q
b11000000000000010 r
b1000011000 s
b100000000010 t
b11000000000000010 u
b1000 w
b10 y
b10 {
b1010 }
#175000
0!
0(
#180000
1!
0!!
b100010000000 '
1(
b1111 (!
b1111 *!
b11000000000000000011000 +!
b11000000000000000011000 ,
b11000000000000000011000 -
b11000000000000000010100 .
b11000000000000000011000 /
b10100100000010001100011 0
b101 1
b1000 2
b11000000000000000011100 3
b11000100000100000011000 4
b10100100000000000000000 5
b101 6
b1010 7
b101 9
b1010 :
b0 ;
b1111 <
b1111 >
b1111 ?
b10000 A
b100 B
b101 C
b1000 D
b1000 E
b1111 F
b101 G
0H
b0 I
b0 L
b10 M
b0 N
0O
1R
0S
b0 U
b10 W
b1010 X
b11000000000000000011000 Y
b11000000000000000010100 Z
b10100100000010001100011 [
b10000 ^
b1100011 _
b100010000000 a
b0 b
b0 d
b0 e
b100 f
b0 g
b1111 h
b1000 j
b11000000000000000011100 k
b11000100000100000011000 l
b10100100000000000000000 m
b101 n
b101 o
b1000 p
b1000 q
b100000100000000100 r
b10100100000 s
b1000 t
b100000100000000100 u
b101 w
b0 x
b0 y
0z
b1010 {
b1111 }
1~
#185000
0!
0(
#190000
1!
x!!
1"!
b100000001111100 '
1(
bx (!
bx *!
b11000000000111111111000 +!
b11000000000111111111000 ,
b100000000000000000001100 -
b11000000000000000011000 .
b11000000000000000011100 /
b11111111010111111111000011101111 0
b11111111111111111111111111110101 1
b11111111111111111111111111100001 2
b11000000000111111111000 3
b100000000000000000001100 4
b11111111010111111111000000000000 5
bx 6
bx 7
bx 9
bx :
bx <
bx >
bx ?
b1000 A
b11111 B
b10101 C
b1 D
b1 E
b11000000000000000011100 F
b110 G
xH
b111 I
b0 L
b1 M
b0 N
1O
0R
1T
b1111 U
b1 W
bx X
b100000000000000000001100 Y
b11000000000000000011000 Z
b11111111010111111111000011101111 [
b1000 ^
b1101111 _
b100000001111100 a
b111 b
1c
b1000 d
b10 f
b0 g
b11000000000000000011100 h
b11111111111111111111111111100001 j
b11000000000111111111000 k
b100000000000000000001100 l
b11111111010111111111000000000000 m
b11111111111111111111111111110101 n
b111111110101 o
b111111100001 p
b111111100000 q
b111111111111111110100 r
b11111111010111111111 s
b111111100000 t
b111111111111111110100 u
bx w
b0 y
bx {
b1111 |
bx }
0~
#195000
0!
0(
#200000
1!
0"!
b100000100000010 '
1(
b110 (!
b110 *!
b100000000000000000010000 -
b100000000000000000001100 .
b100000000000000000010000 /
b100100000001000010011 0
b1 1
b100 2
b100000000000000000010000 3
b100000100000100000001100 4
b100100000000000000000 5
b101 6
b11000000000000000011100 7
b101 9
b1 :
b1 ;
b110 <
b110 >
b110 ?
b10000000 A
b100 B
b1 C
b100 D
b100 E
b110 F
b11 G
b0 I
b0 L
b0 M
b10 N
1S
0T
b0 U
b0 W
b110 X
b100000000000000000010000 Y
b100000000000000000001100 Z
b100100000001000010011 [
b10000000 ^
b10011 _
b100000100000010 a
b0 b
0c
b0 d
b100 e
b0 f
b100 g
b110 h
b100 j
b100000000000000000010000 k
b100000100000100000001100 l
b100100000000000000000 m
b1 n
b1 o
b100 p
b100 q
b100000100000000000 r
b100100000 s
b100 t
b100000100000000000 u
b101 w
b10 x
b1 y
1z
b1 {
b0 |
b110 }
#205000
0!
0(
#210000
1!
1(
b1100 (!
b1100 *!
b100000000000000000010100 -
b100000000000000000010000 .
b100000000000000000010100 /
b1000011000000110010011 0
b10 1
b11 2
b100000000000100000010010 3
b100000011000000000010010 4
b1000011000000000000000 5
b1010 6
bx 7
b1010 9
b10 :
b10 ;
b1100 <
b1100 >
b1100 ?
b11 B
b10 C
b11 D
b11 E
b1100 F
b100 G
b0 I
b0 L
b0 M
b10 N
b0 U
b1100 X
b100000000000000000010100 Y
b100000000000000000010000 Z
b1000011000000110010011 [
b10011 _
b0 b
b1100 h
b11 j
b100000000000100000010010 k
b100000011000000000010010 l
b1000011000000000000000 m
b10 n
b10 o
b11 p
b100000000010 q
b11000000000000010 r
b1000011000 s
b100000000010 t
b11000000000000010 u
b1010 w
b10 y
b10 {
b1100 }
#215000
0!
0(
#220000
1!
0!!
b100010000000 '
1(
b10000 (!
b10000 *!
b100000000000000000011000 +!
b100000000000000000011000 ,
b100000000000000000011000 -
b100000000000000000010100 .
b100000000000000000011000 /
b10100100000010001100011 0
b101 1
b1000 2
b100000000000000000011100 3
b100000100000100000011000 4
b10100100000000000000000 5
b110 6
b1010 7
b110 9
b1010 :
b0 ;
b10000 <
b10000 >
b10000 ?
b10000 A
b100 B
b101 C
b1000 D
b1000 E
b10000 F
b101 G
0H
b0 I
b0 L
b10 M
b0 N
0O
1R
0S
b0 U
b10 W
b1011 X
b100000000000000000011000 Y
b100000000000000000010100 Z
b10100100000010001100011 [
b10000 ^
b1100011 _
b100010000000 a
b0 b
b0 d
b0 e
b100 f
b0 g
b10000 h
b1000 j
b100000000000000000011100 k
b100000100000100000011000 l
b10100100000000000000000 m
b101 n
b101 o
b1000 p
b1000 q
b100000100000000100 r
b10100100000 s
b1000 t
b100000100000000100 u
b110 w
b0 x
b0 y
0z
b1010 {
b10000 }
1~
#225000
0!
0(
#230000
1!
x!!
1"!
b100000001111100 '
1(
bx (!
bx *!
b100000000000111111111000 +!
b100000000000111111111000 ,
b101000000000000000001100 -
b100000000000000000011000 .
b100000000000000000011100 /
b11111111010111111111000011101111 0
b11111111111111111111111111110101 1
b11111111111111111111111111100001 2
b100000000000111111111000 3
b101000000000000000001100 4
b11111111010111111111000000000000 5
bx 6
bx 7
bx 9
bx :
bx <
bx >
bx ?
b1000 A
b11111 B
b10101 C
b1 D
b1 E
b100000000000000000011100 F
b110 G
xH
b111 I
b0 L
b1 M
b0 N
1O
0R
1T
b1111 U
b1 W
bx X
b101000000000000000001100 Y
b100000000000000000011000 Z
b11111111010111111111000011101111 [
b1000 ^
b1101111 _
b100000001111100 a
b111 b
1c
b1000 d
b10 f
b0 g
b100000000000000000011100 h
b11111111111111111111111111100001 j
b100000000000111111111000 k
b101000000000000000001100 l
b11111111010111111111000000000000 m
b11111111111111111111111111110101 n
b111111110101 o
b111111100001 p
b111111100000 q
b111111111111111110100 r
b11111111010111111111 s
b111111100000 t
b111111111111111110100 u
bx w
b0 y
bx {
b1111 |
bx }
0~
#235000
0!
0(
#240000
1!
0"!
b100000100000010 '
1(
b111 (!
b111 *!
b101000000000000000010000 -
b101000000000000000001100 .
b101000000000000000010000 /
b100100000001000010011 0
b1 1
b100 2
b101000000000000000010000 3
b101000100000100000001100 4
b100100000000000000000 5
b110 6
b100000000000000000011100 7
b110 9
b1 :
b1 ;
b111 <
b111 >
b111 ?
b10000000 A
b100 B
b1 C
b100 D
b100 E
b111 F
b11 G
b0 I
b0 L
b0 M
b10 N
1S
0T
b0 U
b0 W
b111 X
b101000000000000000010000 Y
b101000000000000000001100 Z
b100100000001000010011 [
b10000000 ^
b10011 _
b100000100000010 a
b0 b
0c
b0 d
b100 e
b0 f
b100 g
b111 h
b100 j
b101000000000000000010000 k
b101000100000100000001100 l
b100100000000000000000 m
b1 n
b1 o
b100 p
b100 q
b100000100000000000 r
b100100000 s
b100 t
b100000100000000000 u
b110 w
b10 x
b1 y
1z
b1 {
b0 |
b111 }
#245000
0!
0(
