RV32IMC/RV32IMC.sim/sim_1/behav/xsim/fetch.vcd
$date
   Sat Jan 27 14:38:40 2024
$end
$version
  2018.2
$end
$timescale
  1ps
$end
$scope module top_tb $end
$var reg 1 ! clk $end
$var reg 1 " we $end
$var reg 1 # reset $end
$var reg 32 $ data_in [31:0] $end
$var wire 32 % d1 [31:0] $end
$var wire 32 & d2 [31:0] $end
$var wire 15 ' data_out [14:0] $end
$scope module RV32I_i $end
$var wire 1 ( clk $end
$var wire 1 ) we $end
$var wire 1 * reset $end
$var wire 32 + data_in [31:0] $end
$var wire 32 , control_unit_out [31:0] $end
$var wire 32 - OUT_T [31:0] $end
$var wire 32 . addr [31:0] $end
$var wire 32 / offset_adder [31:0] $end
$var wire 32 0 inst_out [31:0] $end
$var wire 32 1 I_type [31:0] $end
$var wire 32 2 S_type [31:0] $end
$var wire 32 3 SB_type [31:0] $end
$var wire 32 4 UJ_type [31:0] $end
$var wire 32 5 U_type [31:0] $end
$var wire 32 6 operand1 [31:0] $end
$var wire 32 7 operand2 [31:0] $end
$var wire 32 8 reg_1 [31:0] $end
$var wire 32 9 reg_2 [31:0] $end
$var wire 32 : immediate_data [31:0] $end
$var wire 32 ; ALU_OUTPUT [31:0] $end
$var wire 32 < write_adder [31:0] $end
$var wire 32 = write_back [31:0] $end
$var wire 9 > contrl_decoder [8:0] $end
$var wire 5 ? rd [4:0] $end
$var wire 1 @ branch_p $end
$var reg 32 A wb [31:0] $end
$var reg 32 B address_q [31:0] $end
$var reg 2 C next_pc [1:0] $end
$var parameter 32 D XLEN [31:0] $end
$scope module instruction_mem $end
$var wire 1 ( clk_in $end
$var wire 1 ) we_in $end
$var wire 12 E address_in [11:0] $end
$var wire 32 + data_in [31:0] $end
$var reg 32 F instruction_out [31:0] $end
$var parameter 32 G address [31:0] $end
$var parameter 32 H size [31:0] $end
$upscope $end
$scope module i_control_decoder $end
$var wire 32 0 opcode_in [31:0] $end
$var reg 9 I decoded_out [8:0] $end
$upscope $end
$scope module i_control_unit $end
$var wire 9 > type_decode_in [8:0] $end
$var wire 3 J function_3_in [2:0] $end
$var wire 1 K function_7_in $end
$var reg 15 L control_unit_out [14:0] $end
$var reg 4 M a [3:0] $end
$var reg 4 N c [3:0] $end
$var reg 3 O b [2:0] $end
$var reg 3 P d [2:0] $end
$upscope $end
$scope module i_ALU $end
$var wire 4 Q alu_operand_in [3:0] $end
$var wire 32 8 operand1_in [31:0] $end
$var wire 32 9 operand2_in [31:0] $end
$var reg 32 R alu_result_out [31:0] $end
$upscope $end
$scope module i_branch $end
$var wire 32 8 operand1_in [31:0] $end
$var wire 32 9 operand2_in [31:0] $end
$var wire 1 S branch_en_in $end
$var reg 1 T branch_taken_out $end
$var wire 1 U function_3_in $end
$upscope $end
$scope module i_data_mem $end
$var wire 1 ( clk_in $end
$var wire 1 V store_en_in $end
$var wire 1 W load_en_in $end
$var wire 32 ; address_in [31:0] $end
$var wire 32 7 store_data_in [31:0] $end
$var reg 32 X data_out [31:0] $end
$var reg 12 Y ad1 [11:0] $end
$upscope $end
$scope module i_reg_file $end
$var wire 1 ( clk_in $end
$var wire 1 * reset_in $end
$var wire 5 Z rs1_address_in [4:0] $end
$var wire 5 [ rs2_address_in [4:0] $end
$var wire 5 ? destination_register_in [4:0] $end
$var wire 32 \ input_data_in [31:0] $end
$var wire 32 6 rs1_data_out [31:0] $end
$var wire 32 7 rs2_data_out [31:0] $end
$var integer 32 ] i $end
$upscope $end
$scope module i_immediate $end
$var wire 32 0 instruction_in [31:0] $end
$var wire 32 ^ pc_in [31:0] $end
$var reg 32 _ S_type_imm_out [31:0] $end
$var reg 32 ` SB_type_imm_out [31:0] $end
$var reg 32 a UJ_type_imm_out [31:0] $end
$var reg 32 b U_type_imm_out [31:0] $end
$var reg 32 c I_type_imm_out [31:0] $end
$var reg 12 d II [11:0] $end
$var reg 12 e SS [11:0] $end
$var reg 12 f az [11:0] $end
$var reg 21 g ay [20:0] $end
$var reg 32 h ax [31:0] $end
$var reg 32 i sb1 [31:0] $end
$var reg 32 j k [31:0] $end
$upscope $end
$upscope $end
$upscope $end
$enddefinitions $end
#0
$dumpvars
1!
1"
x#
bx $
bz %
bz &
bx '
1(
1)
x*
bx +
bzxxxxxxxxxxxxxxx ,
bx -
b0 .
b0 /
bx 0
bx 1
bx 2
bx 3
bx 4
bx 5
bx 6
bx 7
bx 8
bx 9
bx :
bx ;
bx <
bx =
bx >
bx ?
x@
bx A
bx B
b0 C
b100000 D
bx E
bx F
b1100 G
b100000 H
bx I
bx J
xK
bx L
bx M
bx N
bx O
bx P
bx Q
bx R
xS
xT
xU
xV
xW
bx X
bx Y
bx Z
bx [
bx \
bx ]
bx ^
bx _
bx `
bx a
bx b
bx c
bx d
bx e
bx f
bx g
bx h
bx i
bx j
$end
#5000
0!
0#
0(
0*
#10000
1!
0"
b100000100000010 '
1(
0)
bz100000100000010 ,
b0x00000000xx0 -
b100 .
b100 /
b1000000000000110010011 0
b10 1
b11 2
b100000000010 3
b10 4
b1000000000000000000000 5
b0 6
bx 7
b0 8
b10 9
b10 :
b10 ;
b10 =
b10000000 >
b11 ?
b10 A
b0 B
b0 C
b0 E
b1000000000000110010011 F
b10000000 I
b0 J
0K
b100000100000010 L
b0 M
b100 N
b0 O
b100 P
b0 Q
b10 R
0S
0U
0V
0W
b0 Z
b10 [
b10 \
b0 ^
b11 _
b100000000010 `
b10 a
b1000000000000000000000 b
b10 c
b10 d
b11 e
b100000000010 f
b10 g
b1000000000 h
b100000000010 i
b10 j
#15000
0!
0(
#20000
1!
1(
b1000 -
b1000 .
b1000 /
b100000000001000010011 0
b1 1
b100 2
b1000 3
b100000000100 4
b100000000000000000000 5
b0 6
bx 7
b0 8
b1 9
b1 :
b1 ;
b1 =
b100 ?
b1 A
b100 B
b0 C
b1 E
b100000000001000010011 F
b10000000 I
b0 J
0K
b1 R
b0 Z
b1 [
b1 \
b100 ^
b100 _
b1000 `
b100000000100 a
b100000000000000000000 b
b1 c
b1 d
b100 e
b100 f
b100000000000 g
b100000000 h
b100 i
b100000000000 j
#25000
0!
0(
#30000
1!
1(
b0x00000001100 -
b1100 .
b1100 /
b101000000000001010010011 0
b1010 1
b101 2
b100000001100 3
b10010 4
b101000000000000000000000 5
b0 6
bx 7
b0 8
b1010 9
b1010 :
b1010 ;
b1010 =
b101 ?
b1010 A
b1000 B
b0 C
b10 E
b101000000000001010010011 F
b10000000 I
b0 J
0K
b1010 R
b0 Z
b1010 [
b1010 \
b1000 ^
b101 _
b100000001100 `
b10010 a
b101000000000000000000000 b
b1010 c
b1010 d
b101 e
b100000000100 f
b1010 g
b101000000000 h
b100000000100 i
b1010 j
#35000
0!
0(
#40000
1!
1(
b10000 -
b10000 .
b10000 /
b100100000001000010011 0
b1 1
b100 2
b10000 3
b100000100000001100 4
b100100000000000000000 5
b1 6
bx 7
b1 8
b1 9
b1 :
b10 ;
b10 =
b100 ?
b10 A
b1100 B
b0 C
b11 E
b100100000001000010011 F
b10000000 I
b0 J
0K
b10 R
b100 Z
b1 [
b10 \
b1100 ^
b100 _
b10000 `
b100000100000001100 a
b100100000000000000000 b
b1 c
b1 d
b100 e
b100 f
b100000100000000000 g
b100100000 h
b100 i
b100000100000000000 j
#45000
0!
0(
#50000
1!
1(
b0x00000010xx0 -
b10100 .
b10100 /
b1000011000000110010011 0
b10 1
b11 2
b100000010010 3
b11000000000010010 4
b1000011000000000000000 5
b10 6
bx 7
b10 8
b10 9
b10 :
b100 ;
b100 =
b11 ?
b100 A
b10000 B
b0 C
b100 E
b1000011000000110010011 F
b10000000 I
b0 J
0K
b100 R
b11 Z
b10 [
b100 \
b10000 ^
b11 _
b100000010010 `
b11000000000010010 a
b1000011000000000000000 b
b10 c
b10 d
b11 e
b100000000010 f
b11000000000000010 g
b1000011000 h
b100000000010 i
b11000000000000010 j
#55000
0!
0(
#60000
1!
b100010000000 '
1(
bz000100010000000 ,
b11000 -
b11000 .
b11000 /
b10100100000010001100011 0
b101 1
b1000 2
b11100 3
b100000100000011000 4
b10100100000000000000000 5
b10 6
b1010 7
b10 8
b1010 9
b0 :
b1100 ;
b1100 =
b10000 >
b1000 ?
0@
b1100 A
b10100 B
b10 C
b101 E
b10100100000010001100011 F
b10000 I
b0 J
0K
b100010000000 L
b0 M
b0 N
b100 O
b0 P
b0 Q
b1100 R
1S
0T
0V
0W
b100 Z
b101 [
b1100 \
b10100 ^
b1000 _
b11100 `
b100000100000011000 a
b10100100000000000000000 b
b101 c
b101 d
b1000 e
b1000 f
b100000100000000100 g
b10100100000 h
b1000 i
b100000100000000100 j
#65000
0!
0(
#70000
1!
b100000001111100 '
1(
bz100000001111100 ,
b0xxxxxxx11x00 -
b1000000000000000001100 .
b11100 /
b11111111010111111111000011101111 0
b11111111111111111111111111110101 1
b11111111111111111111111111100001 2
b111111111000 3
b1000000000000000001100 4
b11111111010111111111000000000000 5
bx 6
bx 7
bx 8
bx 9
b0 :
bx ;
bx =
b1000 >
b1 ?
x@
b11100 A
b11000 B
b1 C
b110 E
b11111111010111111111000011101111 F
b1000 I
b111 J
1K
b100000001111100 L
b1000 M
b10 O
b0 P
b1111 Q
bx R
0S
xT
1U
0V
0W
b11111 Z
b10101 [
b11100 \
b11000 ^
b11111111111111111111111111100001 _
b111111111000 `
b1000000000000000001100 a
b11111111010111111111000000000000 b
b11111111111111111111111111110101 c
b111111110101 d
b111111100001 e
b111111100000 f
b111111111111111110100 g
b11111111010111111111 h
b111111100000 i
b111111111111111110100 j
#75000
0!
0(
#80000
1!
b100000100000010 '
1(
bz100000100000010 ,
b1000000000000000010000 -
b1000000000000000010000 .
b1000000000000000010000 /
b100100000001000010011 0
b1 1
b100 2
b1000000000000000010000 3
b1000100000100000001100 4
b100100000000000000000 5
b10 6
b11100 7
b10 8
b1 9
b1 :
b11 ;
b11 =
b10000000 >
b100 ?
b11 A
b1000000000000000001100 B
b0 C
b11 E
b100100000001000010011 F
b10000000 I
b0 J
0K
b100000100000010 L
b0 M
b100 N
b0 O
b100 P
b0 Q
b11 R
0S
0U
0V
0W
b100 Z
b1 [
b11 \
b1000000000000000001100 ^
b100 _
b1000000000000000010000 `
b1000100000100000001100 a
b100100000000000000000 b
b1 c
b1 d
b100 e
b100 f
b100000100000000000 g
b100100000 h
b100 i
b100000100000000000 j
#85000
0!
0(
#90000
1!
1(
b1000000000x00000010xx0 -
b1000000000000000010100 .
b1000000000000000010100 /
b1000011000000110010011 0
b10 1
b11 2
b1000000000100000010010 3
b1000011000000000010010 4
b1000011000000000000000 5
b100 6
bx 7
b100 8
b10 9
b10 :
b110 ;
b110 =
b11 ?
b110 A
b1000000000000000010000 B
b0 C
b100 E
b1000011000000110010011 F
b10000000 I
b0 J
0K
b110 R
b11 Z
b10 [
b110 \
b1000000000000000010000 ^
b11 _
b1000000000100000010010 `
b1000011000000000010010 a
b1000011000000000000000 b
b10 c
b10 d
b11 e
b100000000010 f
b11000000000000010 g
b1000011000 h
b100000000010 i
b11000000000000010 j
#95000
0!
0(
#100000
1!
b100010000000 '
1(
bz000100010000000 ,
b1000000000000000011000 -
b1000000000000000011000 .
b1000000000000000011000 /
b10100100000010001100011 0
b101 1
b1000 2
b1000000000000000011100 3
b1000100000100000011000 4
b10100100000000000000000 5
b11 6
b1010 7
b11 8
b1010 9
b0 :
b1101 ;
b1101 =
b10000 >
b1000 ?
0@
b1101 A
b1000000000000000010100 B
b10 C
b101 E
b10100100000010001100011 F
b10000 I
b0 J
0K
b100010000000 L
b0 M
b0 N
b100 O
b0 P
b0 Q
b1101 R
1S
0T
0V
0W
b100 Z
b101 [
b1101 \
b1000000000000000010100 ^
b1000 _
b1000000000000000011100 `
b1000100000100000011000 a
b10100100000000000000000 b
b101 c
b101 d
b1000 e
b1000 f
b100000100000000100 g
b10100100000 h
b1000 i
b100000100000000100 j
#105000
0!
0(
#110000
1!
b100000001111100 '
1(
bz100000001111100 ,
b1000000000xxxxxxx11x00 -
b10000000000000000001100 .
b1000000000000000011100 /
b11111111010111111111000011101111 0
b11111111111111111111111111110101 1
b11111111111111111111111111100001 2
b1000000000111111111000 3
b10000000000000000001100 4
b11111111010111111111000000000000 5
bx 6
bx 7
bx 8
bx 9
b0 :
bx ;
bx =
b1000 >
b1 ?
x@
b1000000000000000011100 A
b1000000000000000011000 B
b1 C
b110 E
b11111111010111111111000011101111 F
b1000 I
b111 J
1K
b100000001111100 L
b1000 M
b10 O
b0 P
b1111 Q
bx R
0S
xT
1U
0V
0W
b11111 Z
b10101 [
b1000000000000000011100 \
b1000000000000000011000 ^
b11111111111111111111111111100001 _
b1000000000111111111000 `
b10000000000000000001100 a
b11111111010111111111000000000000 b
b11111111111111111111111111110101 c
b111111110101 d
b111111100001 e
b111111100000 f
b111111111111111110100 g
b11111111010111111111 h
b111111100000 i
b111111111111111110100 j
#115000
0!
0(
#120000
1!
b100000100000010 '
1(
bz100000100000010 ,
b10000000000000000010000 -
b10000000000000000010000 .
b10000000000000000010000 /
b100100000001000010011 0
b1 1
b100 2
b10000000000000000010000 3
b10000100000100000001100 4
b100100000000000000000 5
b11 6
b1000000000000000011100 7
b11 8
b1 9
b1 :
b100 ;
b100 =
b10000000 >
b100 ?
b100 A
b10000000000000000001100 B
b0 C
b11 E
b100100000001000010011 F
b10000000 I
b0 J
0K
b100000100000010 L
b0 M
b100 N
b0 O
b100 P
b0 Q
b100 R
0S
0U
0V
0W
b100 Z
b1 [
b100 \
b10000000000000000001100 ^
b100 _
b10000000000000000010000 `
b10000100000100000001100 a
b100100000000000000000 b
b1 c
b1 d
b100 e
b100 f
b100000100000000000 g
b100100000 h
b100 i
b100000100000000000 j
#125000
0!
0(
#130000
1!
1(
b10000000000x00000010xx0 -
b10000000000000000010100 .
b10000000000000000010100 /
b1000011000000110010011 0
b10 1
b11 2
b10000000000100000010010 3
b10000011000000000010010 4
b1000011000000000000000 5
b110 6
bx 7
b110 8
b10 9
b10 :
b1000 ;
b1000 =
b11 ?
b1000 A
b10000000000000000010000 B
b0 C
b100 E
b1000011000000110010011 F
b10000000 I
b0 J
0K
b1000 R
b11 Z
b10 [
b1000 \
b10000000000000000010000 ^
b11 _
b10000000000100000010010 `
b10000011000000000010010 a
b1000011000000000000000 b
b10 c
b10 d
b11 e
b100000000010 f
b11000000000000010 g
b1000011000 h
b100000000010 i
b11000000000000010 j
#135000
0!
0(
#140000
1!
b100010000000 '
1(
bz000100010000000 ,
b10000000000000000011000 -
b10000000000000000011000 .
b10000000000000000011000 /
b10100100000010001100011 0
b101 1
b1000 2
b10000000000000000011100 3
b10000100000100000011000 4
b10100100000000000000000 5
b100 6
b1010 7
b100 8
b1010 9
b0 :
b1110 ;
b1110 =
b10000 >
b1000 ?
0@
b1110 A
b10000000000000000010100 B
b10 C
b101 E
b10100100000010001100011 F
b10000 I
b0 J
0K
b100010000000 L
b0 M
b0 N
b100 O
b0 P
b0 Q
b1110 R
1S
0T
0V
0W
b100 Z
b101 [
b1110 \
b10000000000000000010100 ^
b1000 _
b10000000000000000011100 `
b10000100000100000011000 a
b10100100000000000000000 b
b101 c
b101 d
b1000 e
b1000 f
b100000100000000100 g
b10100100000 h
b1000 i
b100000100000000100 j
#145000
0!
0(
#150000
1!
b100000001111100 '
1(
bz100000001111100 ,
b10000000000xxxxxxx11x00 -
b11000000000000000001100 .
b10000000000000000011100 /
b11111111010111111111000011101111 0
b11111111111111111111111111110101 1
b11111111111111111111111111100001 2
b10000000000111111111000 3
b11000000000000000001100 4
b11111111010111111111000000000000 5
bx 6
bx 7
bx 8
bx 9
b0 :
bx ;
bx =
b1000 >
b1 ?
x@
b10000000000000000011100 A
b10000000000000000011000 B
b1 C
b110 E
b11111111010111111111000011101111 F
b1000 I
b111 J
1K
b100000001111100 L
b1000 M
b10 O
b0 P
b1111 Q
bx R
0S
xT
1U
0V
0W
b11111 Z
b10101 [
b10000000000000000011100 \
b10000000000000000011000 ^
b11111111111111111111111111100001 _
b10000000000111111111000 `
b11000000000000000001100 a
b11111111010111111111000000000000 b
b11111111111111111111111111110101 c
b111111110101 d
b111111100001 e
b111111100000 f
b111111111111111110100 g
b11111111010111111111 h
b111111100000 i
b111111111111111110100 j
#155000
0!
0(
#160000
1!
b100000100000010 '
1(
bz100000100000010 ,
b11000000000000000010000 -
b11000000000000000010000 .
b11000000000000000010000 /
b100100000001000010011 0
b1 1
b100 2
b11000000000000000010000 3
b11000100000100000001100 4
b100100000000000000000 5
b100 6
b10000000000000000011100 7
b100 8
b1 9
b1 :
b101 ;
b101 =
b10000000 >
b100 ?
b101 A
b11000000000000000001100 B
b0 C
b11 E
b100100000001000010011 F
b10000000 I
b0 J
0K
b100000100000010 L
b0 M
b100 N
b0 O
b100 P
b0 Q
b101 R
0S
0U
0V
0W
b100 Z
b1 [
b101 \
b11000000000000000001100 ^
b100 _
b11000000000000000010000 `
b11000100000100000001100 a
b100100000000000000000 b
b1 c
b1 d
b100 e
b100 f
b100000100000000000 g
b100100000 h
b100 i
b100000100000000000 j
#165000
0!
0(
#170000
1!
1(
b11000000000x00000010xx0 -
b11000000000000000010100 .
b11000000000000000010100 /
b1000011000000110010011 0
b10 1
b11 2
b11000000000100000010010 3
b11000011000000000010010 4
b1000011000000000000000 5
b1000 6
bx 7
b1000 8
b10 9
b10 :
b1010 ;
b1010 =
b11 ?
b1010 A
b11000000000000000010000 B
b0 C
b100 E
b1000011000000110010011 F
b10000000 I
b0 J
0K
b1010 R
b11 Z
b10 [
b1010 \
b11000000000000000010000 ^
b11 _
b11000000000100000010010 `
b11000011000000000010010 a
b1000011000000000000000 b
b10 c
b10 d
b11 e
b100000000010 f
b11000000000000010 g
b1000011000 h
b100000000010 i
b11000000000000010 j
#175000
0!
0(
#180000
1!
b100010000000 '
1(
bz000100010000000 ,
b11000000000000000011000 -
b11000000000000000011000 .
b11000000000000000011000 /
b10100100000010001100011 0
b101 1
b1000 2
b11000000000000000011100 3
b11000100000100000011000 4
b10100100000000000000000 5
b101 6
b1010 7
b101 8
b1010 9
b0 :
b1111 ;
b1111 =
b10000 >
b1000 ?
0@
b1111 A
b11000000000000000010100 B
b10 C
b101 E
b10100100000010001100011 F
b10000 I
b0 J
0K
b100010000000 L
b0 M
b0 N
b100 O
b0 P
b0 Q
b1111 R
1S
0T
0V
0W
b100 Z
b101 [
b1111 \
b11000000000000000010100 ^
b1000 _
b11000000000000000011100 `
b11000100000100000011000 a
b10100100000000000000000 b
b101 c
b101 d
b1000 e
b1000 f
b100000100000000100 g
b10100100000 h
b1000 i
b100000100000000100 j
#185000
0!
0(
#190000
1!
b100000001111100 '
1(
bz100000001111100 ,
b11000000000xxxxxxx11x00 -
b100000000000000000001100 .
b11000000000000000011100 /
b11111111010111111111000011101111 0
b11111111111111111111111111110101 1
b11111111111111111111111111100001 2
b11000000000111111111000 3
b100000000000000000001100 4
b11111111010111111111000000000000 5
bx 6
bx 7
bx 8
bx 9
b0 :
bx ;
bx =
b1000 >
b1 ?
x@
b11000000000000000011100 A
b11000000000000000011000 B
b1 C
b110 E
b11111111010111111111000011101111 F
b1000 I
b111 J
1K
b100000001111100 L
b1000 M
b10 O
b0 P
b1111 Q
bx R
0S
xT
1U
0V
0W
b11111 Z
b10101 [
b11000000000000000011100 \
b11000000000000000011000 ^
b11111111111111111111111111100001 _
b11000000000111111111000 `
b100000000000000000001100 a
b11111111010111111111000000000000 b
b11111111111111111111111111110101 c
b111111110101 d
b111111100001 e
b111111100000 f
b111111111111111110100 g
b11111111010111111111 h
b111111100000 i
b111111111111111110100 j
#195000
0!
0(
#200000
1!
b100000100000010 '
1(
bz100000100000010 ,
b100000000000000000010000 -
b100000000000000000010000 .
b100000000000000000010000 /
b100100000001000010011 0
b1 1
b100 2
b100000000000000000010000 3
b100000100000100000001100 4
b100100000000000000000 5
b101 6
b11000000000000000011100 7
b101 8
b1 9
b1 :
b110 ;
b110 =
b10000000 >
b100 ?
b110 A
b100000000000000000001100 B
b0 C
b11 E
b100100000001000010011 F
b10000000 I
b0 J
0K
b100000100000010 L
b0 M
b100 N
b0 O
b100 P
b0 Q
b110 R
0S
0U
0V
0W
b100 Z
b1 [
b110 \
b100000000000000000001100 ^
b100 _
b100000000000000000010000 `
b100000100000100000001100 a
b100100000000000000000 b
b1 c
b1 d
b100 e
b100 f
b100000100000000000 g
b100100000 h
b100 i
b100000100000000000 j
#205000
0!
0(
#210000
1!
1(
b100000000000x00000010xx0 -
b100000000000000000010100 .
b100000000000000000010100 /
b1000011000000110010011 0
b10 1
b11 2
b100000000000100000010010 3
b100000011000000000010010 4
b1000011000000000000000 5
b1010 6
bx 7
b1010 8
b10 9
b10 :
b1100 ;
b1100 =
b11 ?
b1100 A
b100000000000000000010000 B
b0 C
b100 E
b1000011000000110010011 F
b10000000 I
b0 J
0K
b1100 R
b11 Z
b10 [
b1100 \
b100000000000000000010000 ^
b11 _
b100000000000100000010010 `
b100000011000000000010010 a
b1000011000000000000000 b
b10 c
b10 d
b11 e
b100000000010 f
b11000000000000010 g
b1000011000 h
b100000000010 i
b11000000000000010 j
#215000
0!
0(
#220000
1!
b100010000000 '
1(
bz000100010000000 ,
b100000000000000000011000 -
b100000000000000000011000 .
b100000000000000000011000 /
b10100100000010001100011 0
b101 1
b1000 2
b100000000000000000011100 3
b100000100000100000011000 4
b10100100000000000000000 5
b110 6
b1010 7
b110 8
b1010 9
b0 :
b10000 ;
b10000 =
b10000 >
b1000 ?
0@
b10000 A
b100000000000000000010100 B
b10 C
b101 E
b10100100000010001100011 F
b10000 I
b0 J
0K
b100010000000 L
b0 M
b0 N
b100 O
b0 P
b0 Q
b10000 R
1S
0T
0V
0W
b100 Z
b101 [
b10000 \
b100000000000000000010100 ^
b1000 _
b100000000000000000011100 `
b100000100000100000011000 a
b10100100000000000000000 b
b101 c
b101 d
b1000 e
b1000 f
b100000100000000100 g
b10100100000 h
b1000 i
b100000100000000100 j
#225000
0!
0(
#230000
1!
b100000001111100 '
1(
bz100000001111100 ,
b100000000000xxxxxxx11x00 -
b101000000000000000001100 .
b100000000000000000011100 /
b11111111010111111111000011101111 0
b11111111111111111111111111110101 1
b11111111111111111111111111100001 2
b100000000000111111111000 3
b101000000000000000001100 4
b11111111010111111111000000000000 5
bx 6
bx 7
bx 8
bx 9
b0 :
bx ;
bx =
b1000 >
b1 ?
x@
b100000000000000000011100 A
b100000000000000000011000 B
b1 C
b110 E
b11111111010111111111000011101111 F
b1000 I
b111 J
1K
b100000001111100 L
b1000 M
b10 O
b0 P
b1111 Q
bx R
0S
xT
1U
0V
0W
b11111 Z
b10101 [
b100000000000000000011100 \
b100000000000000000011000 ^
b11111111111111111111111111100001 _
b100000000000111111111000 `
b101000000000000000001100 a
b11111111010111111111000000000000 b
b11111111111111111111111111110101 c
b111111110101 d
b111111100001 e
b111111100000 f
b111111111111111110100 g
b11111111010111111111 h
b111111100000 i
b111111111111111110100 j
#235000
0!
0(
#240000
1!
b100000100000010 '
1(
bz100000100000010 ,
b101000000000000000010000 -
b101000000000000000010000 .
b101000000000000000010000 /
b100100000001000010011 0
b1 1
b100 2
b101000000000000000010000 3
b101000100000100000001100 4
b100100000000000000000 5
b110 6
b100000000000000000011100 7
b110 8
b1 9
b1 :
b111 ;
b111 =
b10000000 >
b100 ?
b111 A
b101000000000000000001100 B
b0 C
b11 E
b100100000001000010011 F
b10000000 I
b0 J
0K
b100000100000010 L
b0 M
b100 N
b0 O
b100 P
b0 Q
b111 R
0S
0U
0V
0W
b100 Z
b1 [
b111 \
b101000000000000000001100 ^
b100 _
b101000000000000000010000 `
b101000100000100000001100 a
b100100000000000000000 b
b1 c
b1 d
b100 e
b100 f
b100000100000000000 g
b100100000 h
b100 i
b100000100000000000 j
#245000
0!
0(
#250000
1!
1(
b101000000000x00000010xx0 -
b101000000000000000010100 .
b101000000000000000010100 /
b1000011000000110010011 0
b10 1
b11 2
b101000000000100000010010 3
b101000011000000000010010 4
b1000011000000000000000 5
b1100 6
bx 7
b1100 8
b10 9
b10 :
b1110 ;
b1110 =
b11 ?
b1110 A
b101000000000000000010000 B
b0 C
b100 E
b1000011000000110010011 F
b10000000 I
b0 J
0K
b1110 R
b11 Z
b10 [
b1110 \
b101000000000000000010000 ^
b11 _
b101000000000100000010010 `
b101000011000000000010010 a
b1000011000000000000000 b
b10 c
b10 d
b11 e
b100000000010 f
b11000000000000010 g
b1000011000 h
b100000000010 i
b11000000000000010 j
#255000
0!
0(
#260000
1!
b100010000000 '
1(
bz000100010000000 ,
b101000000000000000011000 -
b101000000000000000011000 .
b101000000000000000011000 /
b10100100000010001100011 0
b101 1
b1000 2
b101000000000000000011100 3
b101000100000100000011000 4
b10100100000000000000000 5
b111 6
b1010 7
b111 8
b1010 9
b0 :
b10001 ;
b10001 =
b10000 >
b1000 ?
0@
b10001 A
b101000000000000000010100 B
b10 C
b101 E
b10100100000010001100011 F
b10000 I
b0 J
0K
b100010000000 L
b0 M
b0 N
b100 O
b0 P
b0 Q
b10001 R
1S
0T
0V
0W
b100 Z
b101 [
b10001 \
b101000000000000000010100 ^
b1000 _
b101000000000000000011100 `
b101000100000100000011000 a
b10100100000000000000000 b
b101 c
b101 d
b1000 e
b1000 f
b100000100000000100 g
b10100100000 h
b1000 i
b100000100000000100 j
#265000
0!
0(
#270000
1!
b100000001111100 '
1(
bz100000001111100 ,
b101000000000xxxxxxx11x00 -
b110000000000000000001100 .
b101000000000000000011100 /
b11111111010111111111000011101111 0
b11111111111111111111111111110101 1
b11111111111111111111111111100001 2
b101000000000111111111000 3
b110000000000000000001100 4
b11111111010111111111000000000000 5
bx 6
bx 7
bx 8
bx 9
b0 :
bx ;
bx =
b1000 >
b1 ?
x@
b101000000000000000011100 A
b101000000000000000011000 B
b1 C
b110 E
b11111111010111111111000011101111 F
b1000 I
b111 J
1K
b100000001111100 L
b1000 M
b10 O
b0 P
b1111 Q
bx R
0S
xT
1U
0V
0W
b11111 Z
b10101 [
b101000000000000000011100 \
b101000000000000000011000 ^
b11111111111111111111111111100001 _
b101000000000111111111000 `
b110000000000000000001100 a
b11111111010111111111000000000000 b
b11111111111111111111111111110101 c
b111111110101 d
b111111100001 e
b111111100000 f
b111111111111111110100 g
b11111111010111111111 h
b111111100000 i
b111111111111111110100 j
#275000
0!
0(
#280000
1!
b100000100000010 '
1(
bz100000100000010 ,
b110000000000000000010000 -
b110000000000000000010000 .
b110000000000000000010000 /
b100100000001000010011 0
b1 1
b100 2
b110000000000000000010000 3
b110000100000100000001100 4
b100100000000000000000 5
b111 6
b101000000000000000011100 7
b111 8
b1 9
b1 :
b1000 ;
b1000 =
b10000000 >
b100 ?
b1000 A
b110000000000000000001100 B
b0 C
b11 E
b100100000001000010011 F
b10000000 I
b0 J
0K
b100000100000010 L
b0 M
b100 N
b0 O
b100 P
b0 Q
b1000 R
0S
0U
0V
0W
b100 Z
b1 [
b1000 \
b110000000000000000001100 ^
b100 _
b110000000000000000010000 `
b110000100000100000001100 a
b100100000000000000000 b
b1 c
b1 d
b100 e
b100 f
b100000100000000000 g
b100100000 h
b100 i
b100000100000000000 j
#285000
0!
0(
#290000
1!
1(
b110000000000x00000010xx0 -
b110000000000000000010100 .
b110000000000000000010100 /
b1000011000000110010011 0
b10 1
b11 2
b110000000000100000010010 3
b110000011000000000010010 4
b1000011000000000000000 5
b1110 6
bx 7
b1110 8
b10 9
b10 :
b10000 ;
b10000 =
b11 ?
b10000 A
b110000000000000000010000 B
b0 C
b100 E
b1000011000000110010011 F
b10000000 I
b0 J
0K
b10000 R
b11 Z
b10 [
b10000 \
b110000000000000000010000 ^
b11 _
b110000000000100000010010 `
b110000011000000000010010 a
b1000011000000000000000 b
b10 c
b10 d
b11 e
b100000000010 f
b11000000000000010 g
b1000011000 h
b100000000010 i
b11000000000000010 j
#295000
0!
0(
#300000
1!
b100010000000 '
1(
bz000100010000000 ,
b110000000000000000011000 -
b110000000000000000011000 .
b110000000000000000011000 /
b10100100000010001100011 0
b101 1
b1000 2
b110000000000000000011100 3
b110000100000100000011000 4
b10100100000000000000000 5
b1000 6
b1010 7
b1000 8
b1010 9
b0 :
b10010 ;
b10010 =
b10000 >
b1000 ?
0@
b10010 A
b110000000000000000010100 B
b10 C
b101 E
b10100100000010001100011 F
b10000 I
b0 J
0K
b100010000000 L
b0 M
b0 N
b100 O
b0 P
b0 Q
b10010 R
1S
0T
0V
0W
b100 Z
b101 [
b10010 \
b110000000000000000010100 ^
b1000 _
b110000000000000000011100 `
b110000100000100000011000 a
b10100100000000000000000 b
b101 c
b101 d
b1000 e
b1000 f
b100000100000000100 g
b10100100000 h
b1000 i
b100000100000000100 j
#305000
0!
0(
#310000
1!
b100000001111100 '
1(
bz100000001111100 ,
b110000000000xxxxxxx11x00 -
b111000000000000000001100 .
b110000000000000000011100 /
b11111111010111111111000011101111 0
b11111111111111111111111111110101 1
b11111111111111111111111111100001 2
b110000000000111111111000 3
b111000000000000000001100 4
b11111111010111111111000000000000 5
bx 6
bx 7
bx 8
bx 9
b0 :
bx ;
bx =
b1000 >
b1 ?
x@
b110000000000000000011100 A
b110000000000000000011000 B
b1 C
b110 E
b11111111010111111111000011101111 F
b1000 I
b111 J
1K
b100000001111100 L
b1000 M
b10 O
b0 P
b1111 Q
bx R
0S
xT
1U
0V
0W
b11111 Z
b10101 [
b110000000000000000011100 \
b110000000000000000011000 ^
b11111111111111111111111111100001 _
b110000000000111111111000 `
b111000000000000000001100 a
b11111111010111111111000000000000 b
b11111111111111111111111111110101 c
b111111110101 d
b111111100001 e
b111111100000 f
b111111111111111110100 g
b11111111010111111111 h
b111111100000 i
b111111111111111110100 j
#315000
0!
0(
