RV32IMC/RV32IMC.sim/sim_1/behav/xsim/fetch.vcd
$date
   Sat Jan 27 18:15:53 2024
$end
$version
  2018.2
$end
$timescale
  1ps
$end
$scope module top_tb $end
$var reg 1 ! clk $end
$var reg 1 " we $end
$var reg 1 # reset $end
$var reg 32 $ data_in [31:0] $end
$var wire 32 % d1 [31:0] $end
$var wire 32 & d2 [31:0] $end
$var wire 15 ' data_out [14:0] $end
$scope module RV32I_i $end
$var wire 1 ( clk $end
$var wire 1 ) we $end
$var wire 1 * reset $end
$var wire 32 + data_in [31:0] $end
$var wire 32 , control_unit_out [31:0] $end
$var wire 32 - OUT_T [31:0] $end
$var wire 32 . addr [31:0] $end
$var wire 32 / offset_adder [31:0] $end
$var wire 32 0 inst_out [31:0] $end
$var wire 32 1 I_type [31:0] $end
$var wire 32 2 S_type [31:0] $end
$var wire 32 3 SB_type [31:0] $end
$var wire 32 4 UJ_type [31:0] $end
$var wire 32 5 U_type [31:0] $end
$var wire 32 6 operand1 [31:0] $end
$var wire 32 7 operand2 [31:0] $end
$var wire 32 8 reg_1 [31:0] $end
$var wire 32 9 reg_2 [31:0] $end
$var wire 32 : immediate_data [31:0] $end
$var wire 32 ; ALU_OUTPUT [31:0] $end
$var wire 32 < write_adder [31:0] $end
$var wire 32 = write_back [31:0] $end
$var wire 9 > contrl_decoder [8:0] $end
$var wire 5 ? rd [4:0] $end
$var wire 1 @ branch_p $end
$var reg 32 A wb [31:0] $end
$var reg 32 B address_q [31:0] $end
$var reg 2 C next_pc [1:0] $end
$var parameter 32 D XLEN [31:0] $end
$scope module instruction_mem $end
$var wire 1 ( clk_in $end
$var wire 1 ) we_in $end
$var wire 12 E address_in [11:0] $end
$var wire 32 + data_in [31:0] $end
$var reg 32 F instruction_out [31:0] $end
$var parameter 32 G address [31:0] $end
$var parameter 32 H size [31:0] $end
$upscope $end
$scope module i_control_decoder $end
$var wire 32 0 opcode_in [31:0] $end
$var reg 9 I decoded_out [8:0] $end
$upscope $end
$scope module i_control_unit $end
$var wire 9 > type_decode_in [8:0] $end
$var wire 3 J function_3_in [2:0] $end
$var wire 1 K function_7_in $end
$var reg 15 L control_unit_out [14:0] $end
$var reg 3 M sel [2:0] $end
$upscope $end
$scope module i_ALU $end
$var wire 4 N alu_operand_in [3:0] $end
$var wire 32 8 operand1_in [31:0] $end
$var wire 32 9 operand2_in [31:0] $end
$var reg 32 O alu_result_out [31:0] $end
$upscope $end
$scope module i_branch $end
$var wire 32 8 operand1_in [31:0] $end
$var wire 32 9 operand2_in [31:0] $end
$var wire 3 J function_3_in [2:0] $end
$var wire 1 P branch_en_in $end
$var reg 1 Q branch_taken_out $end
$upscope $end
$scope module i_data_mem $end
$var wire 1 ( clk_in $end
$var wire 1 R store_en_in $end
$var wire 1 S load_en_in $end
$var wire 32 ; address_in [31:0] $end
$var wire 32 7 store_data_in [31:0] $end
$var reg 32 T data_out [31:0] $end
$var reg 12 U ad1 [11:0] $end
$upscope $end
$scope module i_reg_file $end
$var wire 1 ( clk_in $end
$var wire 1 * reset_in $end
$var wire 5 V rs1_address_in [4:0] $end
$var wire 5 W rs2_address_in [4:0] $end
$var wire 5 ? destination_register_in [4:0] $end
$var wire 32 X input_data_in [31:0] $end
$var wire 32 6 rs1_data_out [31:0] $end
$var wire 32 7 rs2_data_out [31:0] $end
$var integer 32 Y i $end
$upscope $end
$scope module i_immediate $end
$var wire 32 0 instruction_in [31:0] $end
$var wire 32 Z pc_in [31:0] $end
$var reg 32 [ I_type_imm_out [31:0] $end
$var reg 32 \ S_type_imm_out [31:0] $end
$var reg 32 ] SB_type_imm_out [31:0] $end
$var reg 32 ^ UJ_type_imm_out [31:0] $end
$var reg 32 _ U_type_imm_out [31:0] $end
$var reg 12 ` S_type [11:0] $end
$var reg 12 a SB_type [11:0] $end
$var reg 12 b I_type [11:0] $end
$var reg 21 c UJ_type [20:0] $end
$upscope $end
$upscope $end
$upscope $end
$enddefinitions $end
#0
$dumpvars
1!
1"
x#
bx $
bz %
bz &
bx '
1(
1)
x*
bx +
bzxxxxxxxxxxxxxxx ,
bx -
b0 .
b0 /
bx 0
bx 1
bx 2
bx 3
bx 4
bx 5
bx 6
bx 7
bx 8
bx 9
bx :
bx ;
bx <
bx =
bx >
bx ?
x@
bx A
bx B
b0 C
b100000 D
bx E
bx F
b1100 G
b100000 H
bx I
bx J
xK
bx L
bx M
bx N
bx O
xP
xQ
xR
xS
bx T
bx U
bx V
bx W
bx X
bx Y
bx Z
bx [
bx \
bx ]
bx ^
bx _
bx `
bx a
bx b
bx c
$end
#5000
0!
0#
0(
0*
#10000
1!
0"
b100000100000010 '
1(
0)
bz100000100000010 ,
b0x00000000xx0 -
b100 .
b100 /
b1000000000000110010011 0
b10 1
b11 2
b100000000010 3
b10 4
b1000000000000000000000 5
b0 6
bx 7
b0 8
b10 9
b10 :
b10 ;
b10 =
b10000000 >
b11 ?
b10 A
b0 B
b0 C
b0 E
b1000000000000110010011 F
b10000000 I
b0 J
0K
b100000100000010 L
b100 M
b0 N
b10 O
0P
0R
0S
b0 V
b10 W
b10 X
b0 Z
b10 [
b11 \
b100000000010 ]
b10 ^
b1000000000000000000000 _
b11 `
b100000000010 a
b10 b
b10 c
#15000
0!
0(
#20000
1!
1(
b1000 -
b1000 .
b1000 /
b100000000001000010011 0
b1 1
b100 2
b1000 3
b100000000100 4
b100000000000000000000 5
b0 6
bx 7
b0 8
b1 9
b1 :
b1 ;
b1 =
b100 ?
b1 A
b100 B
b0 C
b1 E
b100000000001000010011 F
b10000000 I
b0 J
0K
b1 O
b0 V
b1 W
b1 X
b100 Z
b1 [
b100 \
b1000 ]
b100000000100 ^
b100000000000000000000 _
b100 `
b100 a
b1 b
b100000000000 c
#25000
0!
0(
#30000
1!
1(
b0x00000001100 -
b1100 .
b1100 /
b101000000000001010010011 0
b1010 1
b101 2
b100000001100 3
b10010 4
b101000000000000000000000 5
b0 6
bx 7
b0 8
b1010 9
b1010 :
b1010 ;
b1010 =
b101 ?
b1010 A
b1000 B
b0 C
b10 E
b101000000000001010010011 F
b10000000 I
b0 J
0K
b1010 O
b0 V
b1010 W
b1010 X
b1000 Z
b1010 [
b101 \
b100000001100 ]
b10010 ^
b101000000000000000000000 _
b101 `
b100000000100 a
b1010 b
b1010 c
#35000
0!
0(
#40000
1!
1(
b10000 -
b10000 .
b10000 /
b100100000001000010011 0
b1 1
b100 2
b10000 3
b100000100000001100 4
b100100000000000000000 5
b1 6
bx 7
b1 8
b1 9
b1 :
b10 ;
b10 =
b100 ?
b10 A
b1100 B
b0 C
b11 E
b100100000001000010011 F
b10000000 I
b0 J
0K
b10 O
b100 V
b1 W
b10 X
b1100 Z
b1 [
b100 \
b10000 ]
b100000100000001100 ^
b100100000000000000000 _
b100 `
b100 a
b1 b
b100000100000000000 c
#45000
0!
0(
#50000
1!
1(
b0x00000010xx0 -
b10100 .
b10100 /
b1000011000000110010011 0
b10 1
b11 2
b100000010010 3
b11000000000010010 4
b1000011000000000000000 5
b10 6
bx 7
b10 8
b10 9
b10 :
b100 ;
b100 =
b11 ?
b100 A
b10000 B
b0 C
b100 E
b1000011000000110010011 F
b10000000 I
b0 J
0K
b100 O
b11 V
b10 W
b100 X
b10000 Z
b10 [
b11 \
b100000010010 ]
b11000000000010010 ^
b1000011000000000000000 _
b11 `
b100000000010 a
b10 b
b11000000000000010 c
#55000
0!
0(
#60000
1!
b100010000000 '
1(
bz000100010000000 ,
b11000 -
b11000 .
b11000 /
b10100100000010001100011 0
b101 1
b1000 2
b11100 3
b100000100000011000 4
b10100100000000000000000 5
b10 6
b1010 7
b10 8
b1010 9
b0 :
b1100 ;
b1100 =
b10000 >
b1000 ?
0@
b1100 A
b10100 B
b10 C
b101 E
b10100100000010001100011 F
b10000 I
b0 J
0K
b100010000000 L
b0 M
b0 N
b1100 O
1P
0Q
0R
0S
b100 V
b101 W
b1100 X
b10100 Z
b101 [
b1000 \
b11100 ]
b100000100000011000 ^
b10100100000000000000000 _
b1000 `
b1000 a
b101 b
b100000100000000100 c
#65000
0!
0(
#70000
1!
b100000001111100 '
1(
bz100000001111100 ,
b0xxxxxxx11x00 -
b1000000000000000001100 .
b11100 /
b11111111010111111111000011101111 0
b11111111111111111111111111110101 1
b11111111111111111111111111100001 2
b111111111000 3
b1000000000000000001100 4
b11111111010111111111000000000000 5
bx 6
bx 7
bx 8
bx 9
b0 :
bx ;
bx =
b1000 >
b1 ?
x@
b11100 A
b11000 B
b1 C
b110 E
b11111111010111111111000011101111 F
b1000 I
b111 J
1K
b100000001111100 L
b0 M
b1111 N
bx O
0P
xQ
0R
0S
b11111 V
b10101 W
b11100 X
b11000 Z
b11111111111111111111111111110101 [
b11111111111111111111111111100001 \
b111111111000 ]
b1000000000000000001100 ^
b11111111010111111111000000000000 _
b111111100001 `
b111111100000 a
b111111110101 b
b111111111111111110100 c
#75000
0!
0(
#80000
1!
b100000100000010 '
1(
bz100000100000010 ,
b1000000000000000010000 -
b1000000000000000010000 .
b1000000000000000010000 /
b100100000001000010011 0
b1 1
b100 2
b1000000000000000010000 3
b1000100000100000001100 4
b100100000000000000000 5
b10 6
b11100 7
b10 8
b1 9
b1 :
b11 ;
b11 =
b10000000 >
b100 ?
b11 A
b1000000000000000001100 B
b0 C
b11 E
b100100000001000010011 F
b10000000 I
b0 J
0K
b100000100000010 L
b100 M
b0 N
b11 O
0P
0R
0S
b100 V
b1 W
b11 X
b1000000000000000001100 Z
b1 [
b100 \
b1000000000000000010000 ]
b1000100000100000001100 ^
b100100000000000000000 _
b100 `
b100 a
b1 b
b100000100000000000 c
#85000
0!
0(
#90000
1!
1(
b1000000000x00000010xx0 -
b1000000000000000010100 .
b1000000000000000010100 /
b1000011000000110010011 0
b10 1
b11 2
b1000000000100000010010 3
b1000011000000000010010 4
b1000011000000000000000 5
b100 6
bx 7
b100 8
b10 9
b10 :
b110 ;
b110 =
b11 ?
b110 A
b1000000000000000010000 B
b0 C
b100 E
b1000011000000110010011 F
b10000000 I
b0 J
0K
b110 O
b11 V
b10 W
b110 X
b1000000000000000010000 Z
b10 [
b11 \
b1000000000100000010010 ]
b1000011000000000010010 ^
b1000011000000000000000 _
b11 `
b100000000010 a
b10 b
b11000000000000010 c
#95000
0!
0(
#100000
1!
b100010000000 '
1(
bz000100010000000 ,
b1000000000000000011000 -
b1000000000000000011000 .
b1000000000000000011000 /
b10100100000010001100011 0
b101 1
b1000 2
b1000000000000000011100 3
b1000100000100000011000 4
b10100100000000000000000 5
b11 6
b1010 7
b11 8
b1010 9
b0 :
b1101 ;
b1101 =
b10000 >
b1000 ?
0@
b1101 A
b1000000000000000010100 B
b10 C
b101 E
b10100100000010001100011 F
b10000 I
b0 J
0K
b100010000000 L
b0 M
b0 N
b1101 O
1P
0Q
0R
0S
b100 V
b101 W
b1101 X
b1000000000000000010100 Z
b101 [
b1000 \
b1000000000000000011100 ]
b1000100000100000011000 ^
b10100100000000000000000 _
b1000 `
b1000 a
b101 b
b100000100000000100 c
#105000
0!
0(
#110000
1!
b100000001111100 '
1(
bz100000001111100 ,
b1000000000xxxxxxx11x00 -
b10000000000000000001100 .
b1000000000000000011100 /
b11111111010111111111000011101111 0
b11111111111111111111111111110101 1
b11111111111111111111111111100001 2
b1000000000111111111000 3
b10000000000000000001100 4
b11111111010111111111000000000000 5
bx 6
bx 7
bx 8
bx 9
b0 :
bx ;
bx =
b1000 >
b1 ?
x@
b1000000000000000011100 A
b1000000000000000011000 B
b1 C
b110 E
b11111111010111111111000011101111 F
b1000 I
b111 J
1K
b100000001111100 L
b0 M
b1111 N
bx O
0P
xQ
0R
0S
b11111 V
b10101 W
b1000000000000000011100 X
b1000000000000000011000 Z
b11111111111111111111111111110101 [
b11111111111111111111111111100001 \
b1000000000111111111000 ]
b10000000000000000001100 ^
b11111111010111111111000000000000 _
b111111100001 `
b111111100000 a
b111111110101 b
b111111111111111110100 c
#115000
0!
0(
#120000
1!
b100000100000010 '
1(
bz100000100000010 ,
b10000000000000000010000 -
b10000000000000000010000 .
b10000000000000000010000 /
b100100000001000010011 0
b1 1
b100 2
b10000000000000000010000 3
b10000100000100000001100 4
b100100000000000000000 5
b11 6
b1000000000000000011100 7
b11 8
b1 9
b1 :
b100 ;
b100 =
b10000000 >
b100 ?
b100 A
b10000000000000000001100 B
b0 C
b11 E
b100100000001000010011 F
b10000000 I
b0 J
0K
b100000100000010 L
b100 M
b0 N
b100 O
0P
0R
0S
b100 V
b1 W
b100 X
b10000000000000000001100 Z
b1 [
b100 \
b10000000000000000010000 ]
b10000100000100000001100 ^
b100100000000000000000 _
b100 `
b100 a
b1 b
b100000100000000000 c
#125000
0!
0(
#130000
1!
1(
b10000000000x00000010xx0 -
b10000000000000000010100 .
b10000000000000000010100 /
b1000011000000110010011 0
b10 1
b11 2
b10000000000100000010010 3
b10000011000000000010010 4
b1000011000000000000000 5
b110 6
bx 7
b110 8
b10 9
b10 :
b1000 ;
b1000 =
b11 ?
b1000 A
b10000000000000000010000 B
b0 C
b100 E
b1000011000000110010011 F
b10000000 I
b0 J
0K
b1000 O
b11 V
b10 W
b1000 X
b10000000000000000010000 Z
b10 [
b11 \
b10000000000100000010010 ]
b10000011000000000010010 ^
b1000011000000000000000 _
b11 `
b100000000010 a
b10 b
b11000000000000010 c
#135000
0!
0(
#140000
1!
b100010000000 '
1(
bz000100010000000 ,
b10000000000000000011000 -
b10000000000000000011000 .
b10000000000000000011000 /
b10100100000010001100011 0
b101 1
b1000 2
b10000000000000000011100 3
b10000100000100000011000 4
b10100100000000000000000 5
b100 6
b1010 7
b100 8
b1010 9
b0 :
b1110 ;
b1110 =
b10000 >
b1000 ?
0@
b1110 A
b10000000000000000010100 B
b10 C
b101 E
b10100100000010001100011 F
b10000 I
b0 J
0K
b100010000000 L
b0 M
b0 N
b1110 O
1P
0Q
0R
0S
b100 V
b101 W
b1110 X
b10000000000000000010100 Z
b101 [
b1000 \
b10000000000000000011100 ]
b10000100000100000011000 ^
b10100100000000000000000 _
b1000 `
b1000 a
b101 b
b100000100000000100 c
#145000
0!
0(
#150000
1!
b100000001111100 '
1(
bz100000001111100 ,
b10000000000xxxxxxx11x00 -
b11000000000000000001100 .
b10000000000000000011100 /
b11111111010111111111000011101111 0
b11111111111111111111111111110101 1
b11111111111111111111111111100001 2
b10000000000111111111000 3
b11000000000000000001100 4
b11111111010111111111000000000000 5
bx 6
bx 7
bx 8
bx 9
b0 :
bx ;
bx =
b1000 >
b1 ?
x@
b10000000000000000011100 A
b10000000000000000011000 B
b1 C
b110 E
b11111111010111111111000011101111 F
b1000 I
b111 J
1K
b100000001111100 L
b0 M
b1111 N
bx O
0P
xQ
0R
0S
b11111 V
b10101 W
b10000000000000000011100 X
b10000000000000000011000 Z
b11111111111111111111111111110101 [
b11111111111111111111111111100001 \
b10000000000111111111000 ]
b11000000000000000001100 ^
b11111111010111111111000000000000 _
b111111100001 `
b111111100000 a
b111111110101 b
b111111111111111110100 c
#155000
0!
0(
#160000
1!
b100000100000010 '
1(
bz100000100000010 ,
b11000000000000000010000 -
b11000000000000000010000 .
b11000000000000000010000 /
b100100000001000010011 0
b1 1
b100 2
b11000000000000000010000 3
b11000100000100000001100 4
b100100000000000000000 5
b100 6
b10000000000000000011100 7
b100 8
b1 9
b1 :
b101 ;
b101 =
b10000000 >
b100 ?
b101 A
b11000000000000000001100 B
b0 C
b11 E
b100100000001000010011 F
b10000000 I
b0 J
0K
b100000100000010 L
b100 M
b0 N
b101 O
0P
0R
0S
b100 V
b1 W
b101 X
b11000000000000000001100 Z
b1 [
b100 \
b11000000000000000010000 ]
b11000100000100000001100 ^
b100100000000000000000 _
b100 `
b100 a
b1 b
b100000100000000000 c
#165000
0!
0(
#170000
1!
1(
b11000000000x00000010xx0 -
b11000000000000000010100 .
b11000000000000000010100 /
b1000011000000110010011 0
b10 1
b11 2
b11000000000100000010010 3
b11000011000000000010010 4
b1000011000000000000000 5
b1000 6
bx 7
b1000 8
b10 9
b10 :
b1010 ;
b1010 =
b11 ?
b1010 A
b11000000000000000010000 B
b0 C
b100 E
b1000011000000110010011 F
b10000000 I
b0 J
0K
b1010 O
b11 V
b10 W
b1010 X
b11000000000000000010000 Z
b10 [
b11 \
b11000000000100000010010 ]
b11000011000000000010010 ^
b1000011000000000000000 _
b11 `
b100000000010 a
b10 b
b11000000000000010 c
#175000
0!
0(
#180000
1!
b100010000000 '
1(
bz000100010000000 ,
b11000000000000000011000 -
b11000000000000000011000 .
b11000000000000000011000 /
b10100100000010001100011 0
b101 1
b1000 2
b11000000000000000011100 3
b11000100000100000011000 4
b10100100000000000000000 5
b101 6
b1010 7
b101 8
b1010 9
b0 :
b1111 ;
b1111 =
b10000 >
b1000 ?
0@
b1111 A
b11000000000000000010100 B
b10 C
b101 E
b10100100000010001100011 F
b10000 I
b0 J
0K
b100010000000 L
b0 M
b0 N
b1111 O
1P
0Q
0R
0S
b100 V
b101 W
b1111 X
b11000000000000000010100 Z
b101 [
b1000 \
b11000000000000000011100 ]
b11000100000100000011000 ^
b10100100000000000000000 _
b1000 `
b1000 a
b101 b
b100000100000000100 c
#185000
0!
0(
#190000
1!
b100000001111100 '
1(
bz100000001111100 ,
b11000000000xxxxxxx11x00 -
b100000000000000000001100 .
b11000000000000000011100 /
b11111111010111111111000011101111 0
b11111111111111111111111111110101 1
b11111111111111111111111111100001 2
b11000000000111111111000 3
b100000000000000000001100 4
b11111111010111111111000000000000 5
bx 6
bx 7
bx 8
bx 9
b0 :
bx ;
bx =
b1000 >
b1 ?
x@
b11000000000000000011100 A
b11000000000000000011000 B
b1 C
b110 E
b11111111010111111111000011101111 F
b1000 I
b111 J
1K
b100000001111100 L
b0 M
b1111 N
bx O
0P
xQ
0R
0S
b11111 V
b10101 W
b11000000000000000011100 X
b11000000000000000011000 Z
b11111111111111111111111111110101 [
b11111111111111111111111111100001 \
b11000000000111111111000 ]
b100000000000000000001100 ^
b11111111010111111111000000000000 _
b111111100001 `
b111111100000 a
b111111110101 b
b111111111111111110100 c
#195000
0!
0(
#200000
1!
b100000100000010 '
1(
bz100000100000010 ,
b100000000000000000010000 -
b100000000000000000010000 .
b100000000000000000010000 /
b100100000001000010011 0
b1 1
b100 2
b100000000000000000010000 3
b100000100000100000001100 4
b100100000000000000000 5
b101 6
b11000000000000000011100 7
b101 8
b1 9
b1 :
b110 ;
b110 =
b10000000 >
b100 ?
b110 A
b100000000000000000001100 B
b0 C
b11 E
b100100000001000010011 F
b10000000 I
b0 J
0K
b100000100000010 L
b100 M
b0 N
b110 O
0P
0R
0S
b100 V
b1 W
b110 X
b100000000000000000001100 Z
b1 [
b100 \
b100000000000000000010000 ]
b100000100000100000001100 ^
b100100000000000000000 _
b100 `
b100 a
b1 b
b100000100000000000 c
#205000
0!
0(
#210000
1!
1(
b100000000000x00000010xx0 -
b100000000000000000010100 .
b100000000000000000010100 /
b1000011000000110010011 0
b10 1
b11 2
b100000000000100000010010 3
b100000011000000000010010 4
b1000011000000000000000 5
b1010 6
bx 7
b1010 8
b10 9
b10 :
b1100 ;
b1100 =
b11 ?
b1100 A
b100000000000000000010000 B
b0 C
b100 E
b1000011000000110010011 F
b10000000 I
b0 J
0K
b1100 O
b11 V
b10 W
b1100 X
b100000000000000000010000 Z
b10 [
b11 \
b100000000000100000010010 ]
b100000011000000000010010 ^
b1000011000000000000000 _
b11 `
b100000000010 a
b10 b
b11000000000000010 c
#215000
0!
0(
#220000
1!
b100010000000 '
1(
bz000100010000000 ,
b100000000000000000011000 -
b100000000000000000011000 .
b100000000000000000011000 /
b10100100000010001100011 0
b101 1
b1000 2
b100000000000000000011100 3
b100000100000100000011000 4
b10100100000000000000000 5
b110 6
b1010 7
b110 8
b1010 9
b0 :
b10000 ;
b10000 =
b10000 >
b1000 ?
0@
b10000 A
b100000000000000000010100 B
b10 C
b101 E
b10100100000010001100011 F
b10000 I
b0 J
0K
b100010000000 L
b0 M
b0 N
b10000 O
1P
0Q
0R
0S
b100 V
b101 W
b10000 X
b100000000000000000010100 Z
b101 [
b1000 \
b100000000000000000011100 ]
b100000100000100000011000 ^
b10100100000000000000000 _
b1000 `
b1000 a
b101 b
b100000100000000100 c
#225000
0!
0(
#230000
1!
b100000001111100 '
1(
bz100000001111100 ,
b100000000000xxxxxxx11x00 -
b101000000000000000001100 .
b100000000000000000011100 /
b11111111010111111111000011101111 0
b11111111111111111111111111110101 1
b11111111111111111111111111100001 2
b100000000000111111111000 3
b101000000000000000001100 4
b11111111010111111111000000000000 5
bx 6
bx 7
bx 8
bx 9
b0 :
bx ;
bx =
b1000 >
b1 ?
x@
b100000000000000000011100 A
b100000000000000000011000 B
b1 C
b110 E
b11111111010111111111000011101111 F
b1000 I
b111 J
1K
b100000001111100 L
b0 M
b1111 N
bx O
0P
xQ
0R
0S
b11111 V
b10101 W
b100000000000000000011100 X
b100000000000000000011000 Z
b11111111111111111111111111110101 [
b11111111111111111111111111100001 \
b100000000000111111111000 ]
b101000000000000000001100 ^
b11111111010111111111000000000000 _
b111111100001 `
b111111100000 a
b111111110101 b
b111111111111111110100 c
#235000
0!
0(
#240000
1!
b100000100000010 '
1(
bz100000100000010 ,
b101000000000000000010000 -
b101000000000000000010000 .
b101000000000000000010000 /
b100100000001000010011 0
b1 1
b100 2
b101000000000000000010000 3
b101000100000100000001100 4
b100100000000000000000 5
b110 6
b100000000000000000011100 7
b110 8
b1 9
b1 :
b111 ;
b111 =
b10000000 >
b100 ?
b111 A
b101000000000000000001100 B
b0 C
b11 E
b100100000001000010011 F
b10000000 I
b0 J
0K
b100000100000010 L
b100 M
b0 N
b111 O
0P
0R
0S
b100 V
b1 W
b111 X
b101000000000000000001100 Z
b1 [
b100 \
b101000000000000000010000 ]
b101000100000100000001100 ^
b100100000000000000000 _
b100 `
b100 a
b1 b
b100000100000000000 c
#245000
0!
0(
#250000
1!
1(
b101000000000x00000010xx0 -
b101000000000000000010100 .
b101000000000000000010100 /
b1000011000000110010011 0
b10 1
b11 2
b101000000000100000010010 3
b101000011000000000010010 4
b1000011000000000000000 5
b1100 6
bx 7
b1100 8
b10 9
b10 :
b1110 ;
b1110 =
b11 ?
b1110 A
b101000000000000000010000 B
b0 C
b100 E
b1000011000000110010011 F
b10000000 I
b0 J
0K
b1110 O
b11 V
b10 W
b1110 X
b101000000000000000010000 Z
b10 [
b11 \
b101000000000100000010010 ]
b101000011000000000010010 ^
b1000011000000000000000 _
b11 `
b100000000010 a
b10 b
b11000000000000010 c
#255000
0!
0(
#260000
1!
b100010000000 '
1(
bz000100010000000 ,
b101000000000000000011000 -
b101000000000000000011000 .
b101000000000000000011000 /
b10100100000010001100011 0
b101 1
b1000 2
b101000000000000000011100 3
b101000100000100000011000 4
b10100100000000000000000 5
b111 6
b1010 7
b111 8
b1010 9
b0 :
b10001 ;
b10001 =
b10000 >
b1000 ?
0@
b10001 A
b101000000000000000010100 B
b10 C
b101 E
b10100100000010001100011 F
b10000 I
b0 J
0K
b100010000000 L
b0 M
b0 N
b10001 O
1P
0Q
0R
0S
b100 V
b101 W
b10001 X
b101000000000000000010100 Z
b101 [
b1000 \
b101000000000000000011100 ]
b101000100000100000011000 ^
b10100100000000000000000 _
b1000 `
b1000 a
b101 b
b100000100000000100 c
#265000
0!
0(
#270000
1!
b100000001111100 '
1(
bz100000001111100 ,
b101000000000xxxxxxx11x00 -
b110000000000000000001100 .
b101000000000000000011100 /
b11111111010111111111000011101111 0
b11111111111111111111111111110101 1
b11111111111111111111111111100001 2
b101000000000111111111000 3
b110000000000000000001100 4
b11111111010111111111000000000000 5
bx 6
bx 7
bx 8
bx 9
b0 :
bx ;
bx =
b1000 >
b1 ?
x@
b101000000000000000011100 A
b101000000000000000011000 B
b1 C
b110 E
b11111111010111111111000011101111 F
b1000 I
b111 J
1K
b100000001111100 L
b0 M
b1111 N
bx O
0P
xQ
0R
0S
b11111 V
b10101 W
b101000000000000000011100 X
b101000000000000000011000 Z
b11111111111111111111111111110101 [
b11111111111111111111111111100001 \
b101000000000111111111000 ]
b110000000000000000001100 ^
b11111111010111111111000000000000 _
b111111100001 `
b111111100000 a
b111111110101 b
b111111111111111110100 c
#275000
0!
0(
#280000
1!
b100000100000010 '
1(
bz100000100000010 ,
b110000000000000000010000 -
b110000000000000000010000 .
b110000000000000000010000 /
b100100000001000010011 0
b1 1
b100 2
b110000000000000000010000 3
b110000100000100000001100 4
b100100000000000000000 5
b111 6
b101000000000000000011100 7
b111 8
b1 9
b1 :
b1000 ;
b1000 =
b10000000 >
b100 ?
b1000 A
b110000000000000000001100 B
b0 C
b11 E
b100100000001000010011 F
b10000000 I
b0 J
0K
b100000100000010 L
b100 M
b0 N
b1000 O
0P
0R
0S
b100 V
b1 W
b1000 X
b110000000000000000001100 Z
b1 [
b100 \
b110000000000000000010000 ]
b110000100000100000001100 ^
b100100000000000000000 _
b100 `
b100 a
b1 b
b100000100000000000 c
#285000
0!
0(
#290000
1!
1(
b110000000000x00000010xx0 -
b110000000000000000010100 .
b110000000000000000010100 /
b1000011000000110010011 0
b10 1
b11 2
b110000000000100000010010 3
b110000011000000000010010 4
b1000011000000000000000 5
b1110 6
bx 7
b1110 8
b10 9
b10 :
b10000 ;
b10000 =
b11 ?
b10000 A
b110000000000000000010000 B
b0 C
b100 E
b1000011000000110010011 F
b10000000 I
b0 J
0K
b10000 O
b11 V
b10 W
b10000 X
b110000000000000000010000 Z
b10 [
b11 \
b110000000000100000010010 ]
b110000011000000000010010 ^
b1000011000000000000000 _
b11 `
b100000000010 a
b10 b
b11000000000000010 c
#295000
0!
0(
#300000
1!
b100010000000 '
1(
bz000100010000000 ,
b110000000000000000011000 -
b110000000000000000011000 .
b110000000000000000011000 /
b10100100000010001100011 0
b101 1
b1000 2
b110000000000000000011100 3
b110000100000100000011000 4
b10100100000000000000000 5
b1000 6
b1010 7
b1000 8
b1010 9
b0 :
b10010 ;
b10010 =
b10000 >
b1000 ?
0@
b10010 A
b110000000000000000010100 B
b10 C
b101 E
b10100100000010001100011 F
b10000 I
b0 J
0K
b100010000000 L
b0 M
b0 N
b10010 O
1P
0Q
0R
0S
b100 V
b101 W
b10010 X
b110000000000000000010100 Z
b101 [
b1000 \
b110000000000000000011100 ]
b110000100000100000011000 ^
b10100100000000000000000 _
b1000 `
b1000 a
b101 b
b100000100000000100 c
#305000
0!
0(
#310000
1!
b100000001111100 '
1(
bz100000001111100 ,
b110000000000xxxxxxx11x00 -
b111000000000000000001100 .
b110000000000000000011100 /
b11111111010111111111000011101111 0
b11111111111111111111111111110101 1
b11111111111111111111111111100001 2
b110000000000111111111000 3
b111000000000000000001100 4
b11111111010111111111000000000000 5
bx 6
bx 7
bx 8
bx 9
b0 :
bx ;
bx =
b1000 >
b1 ?
x@
b110000000000000000011100 A
b110000000000000000011000 B
b1 C
b110 E
b11111111010111111111000011101111 F
b1000 I
b111 J
1K
b100000001111100 L
b0 M
b1111 N
bx O
0P
xQ
0R
0S
b11111 V
b10101 W
b110000000000000000011100 X
b110000000000000000011000 Z
b11111111111111111111111111110101 [
b11111111111111111111111111100001 \
b110000000000111111111000 ]
b111000000000000000001100 ^
b11111111010111111111000000000000 _
b111111100001 `
b111111100000 a
b111111110101 b
b111111111111111110100 c
#315000
0!
0(
#320000
1!
b100000100000010 '
1(
bz100000100000010 ,
b111000000000000000010000 -
b111000000000000000010000 .
b111000000000000000010000 /
b100100000001000010011 0
b1 1
b100 2
b111000000000000000010000 3
b111000100000100000001100 4
b100100000000000000000 5
b1000 6
b110000000000000000011100 7
b1000 8
b1 9
b1 :
b1001 ;
b1001 =
b10000000 >
b100 ?
b1001 A
b111000000000000000001100 B
b0 C
b11 E
b100100000001000010011 F
b10000000 I
b0 J
0K
b100000100000010 L
b100 M
b0 N
b1001 O
0P
0R
0S
b100 V
b1 W
b1001 X
b111000000000000000001100 Z
b1 [
b100 \
b111000000000000000010000 ]
b111000100000100000001100 ^
b100100000000000000000 _
b100 `
b100 a
b1 b
b100000100000000000 c
#325000
0!
0(
#330000
1!
1(
b111000000000x00000010xx0 -
b111000000000000000010100 .
b111000000000000000010100 /
b1000011000000110010011 0
b10 1
b11 2
b111000000000100000010010 3
b111000011000000000010010 4
b1000011000000000000000 5
b10000 6
bx 7
b10000 8
b10 9
b10 :
b10010 ;
b10010 =
b11 ?
b10010 A
b111000000000000000010000 B
b0 C
b100 E
b1000011000000110010011 F
b10000000 I
b0 J
0K
b10010 O
b11 V
b10 W
b10010 X
b111000000000000000010000 Z
b10 [
b11 \
b111000000000100000010010 ]
b111000011000000000010010 ^
b1000011000000000000000 _
b11 `
b100000000010 a
b10 b
b11000000000000010 c
#335000
0!
0(
#340000
1!
b100010000000 '
1(
bz000100010000000 ,
b111000000000000000011000 -
b111000000000000000011000 .
b111000000000000000011000 /
b10100100000010001100011 0
b101 1
b1000 2
b111000000000000000011100 3
b111000100000100000011000 4
b10100100000000000000000 5
b1001 6
b1010 7
b1001 8
b1010 9
b0 :
b10011 ;
b10011 =
b10000 >
b1000 ?
0@
b10011 A
b111000000000000000010100 B
b10 C
b101 E
b10100100000010001100011 F
b10000 I
b0 J
0K
b100010000000 L
b0 M
b0 N
b10011 O
1P
0Q
0R
0S
b100 V
b101 W
b10011 X
b111000000000000000010100 Z
b101 [
b1000 \
b111000000000000000011100 ]
b111000100000100000011000 ^
b10100100000000000000000 _
b1000 `
b1000 a
b101 b
b100000100000000100 c
#345000
0!
0(
